RQ16 us901.c 0.3435908054
RQ16 us1005.c 0.4009536352
RQ16 us3496.c 0.3710601282
RQ16 us1864.c 0.4549222234
RQ16 us1159.c 0.3635195326
RQ16 us894.c 0.3464151002
RQ16 us903.c 0.3985616419
RQ16 us1883.c 0.4147156513
RQ16 us3512.c 0.4182791441
RQ16 us1060.c 0.3585929465
RQ16 us3612.c 0.4126203994
RQ16 us748.c 0.408149987
RQ16 us893.c 0.3590616004
RQ16 us897.c 0.3201984563
RQ16 us4020.c 0.3543815212
RQ16 us898.c 0.3503395466
RQ16 us896.c 0.4053155564
RQ16 us2174.c 0.404558813
RQ16 us899.c 0.3884436088
RQ16 us895.c 0.2959466913
RQ16 us900.c 0.3040058504
RQ41 us901.c 0.2929381421
RQ41 us1005.c 0.3192291588
RQ41 us3496.c 0.3191678361
RQ41 us1864.c 0.3730934106
RQ41 us1159.c 0.2877287373
RQ41 us894.c 0.3029924035
RQ41 us903.c 0.3332822097
RQ41 us1883.c 0.3158239435
RQ41 us3512.c 0.3458593149
RQ41 us1060.c 0.2942559616
RQ41 us3612.c 0.3351673424
RQ41 us748.c 0.3326952957
RQ41 us893.c 0.2959641139
RQ41 us897.c 0.2750340727
RQ41 us4020.c 0.2960897595
RQ41 us898.c 0.2833729948
RQ41 us896.c 0.3348667102
RQ41 us2174.c 0.3298523948
RQ41 us899.c 0.2895739042
RQ41 us895.c 0.245082392
RQ41 us900.c 0.2472458328
RQ33 us901.c 0.4447818805
RQ33 us1005.c 0.5100254913
RQ33 us3496.c 0.5293079492
RQ33 us1864.c 0.6144264139
RQ33 us1159.c 0.4845161397
RQ33 us894.c 0.4528557013
RQ33 us903.c 0.5213451362
RQ33 us1883.c 0.5299989901
RQ33 us3512.c 0.5783521014
RQ33 us1060.c 0.4763079211
RQ33 us3612.c 0.5688393687
RQ33 us748.c 0.5249396083
RQ33 us893.c 0.4721858502
RQ33 us897.c 0.4662538279
RQ33 us4020.c 0.4655717485
RQ33 us898.c 0.4462035431
RQ33 us896.c 0.5283807003
RQ33 us2174.c 0.5234522958
RQ33 us899.c 0.4838910787
RQ33 us895.c 0.3988668169
RQ33 us900.c 0.4077609947
RQ25 us901.c 0.3220827305
RQ25 us1005.c 0.4059367634
RQ25 us3496.c 0.3410992221
RQ25 us1864.c 0.4072426528
RQ25 us1159.c 0.3076239452
RQ25 us894.c 0.3265791866
RQ25 us903.c 0.3713263273
RQ25 us1883.c 0.3343135842
RQ25 us3512.c 0.3666454816
RQ25 us1060.c 0.3381975291
RQ25 us3612.c 0.3784052973
RQ25 us748.c 0.3708871617
RQ25 us893.c 0.3330305719
RQ25 us897.c 0.3096145588
RQ25 us4020.c 0.30490736
RQ25 us898.c 0.2945334792
RQ25 us896.c 0.3719176752
RQ25 us2174.c 0.3490546812
RQ25 us899.c 0.3180516739
RQ25 us895.c 0.2725288517
RQ25 us900.c 0.2814834811
RQ38 us901.c 0.3062668181
RQ38 us1005.c 0.3912365348
RQ38 us3496.c 0.3324181628
RQ38 us1864.c 0.4155454692
RQ38 us1159.c 0.3274842359
RQ38 us894.c 0.3069234191
RQ38 us903.c 0.4181484403
RQ38 us1883.c 0.3739365142
RQ38 us3512.c 0.3820152676
RQ38 us1060.c 0.3380631975
RQ38 us3612.c 0.3785171176
RQ38 us748.c 0.4234377364
RQ38 us893.c 0.3587893981
RQ38 us897.c 0.2865036702
RQ38 us4020.c 0.3215388789
RQ38 us898.c 0.3552746086
RQ38 us896.c 0.3467438807
RQ38 us2174.c 0.3979998284
RQ38 us899.c 0.3415960591
RQ38 us895.c 0.2429675906
RQ38 us900.c 0.2490868529
RQ55 us901.c 0.2381491629
RQ55 us1005.c 0.2674423389
RQ55 us3496.c 0.2479065603
RQ55 us1864.c 0.337691849
RQ55 us1159.c 0.2408572918
RQ55 us894.c 0.2429271241
RQ55 us903.c 0.2921916821
RQ55 us1883.c 0.2932644342
RQ55 us3512.c 0.289327101
RQ55 us1060.c 0.2500089528
RQ55 us3612.c 0.286597244
RQ55 us748.c 0.2965397534
RQ55 us893.c 0.2696752696
RQ55 us897.c 0.2154463202
RQ55 us4020.c 0.2313627023
RQ55 us898.c 0.2383409375
RQ55 us896.c 0.2607559214
RQ55 us2174.c 0.2851917776
RQ55 us899.c 0.2448368413
RQ55 us895.c 0.1834057724
RQ55 us900.c 0.1859217988
RQ29 us901.c 0.3730157966
RQ29 us1005.c 0.4394934458
RQ29 us3496.c 0.3556323938
RQ29 us1864.c 0.4678307786
RQ29 us1159.c 0.375964199
RQ29 us894.c 0.3834266973
RQ29 us903.c 0.4075289644
RQ29 us1883.c 0.4069863225
RQ29 us3512.c 0.4303788216
RQ29 us1060.c 0.3830211402
RQ29 us3612.c 0.4111318353
RQ29 us748.c 0.4110410517
RQ29 us893.c 0.4054824321
RQ29 us897.c 0.3290811593
RQ29 us4020.c 0.3967523316
RQ29 us898.c 0.3719932262
RQ29 us896.c 0.3971317783
RQ29 us2174.c 0.3964153341
RQ29 us899.c 0.4424087819
RQ29 us895.c 0.2859657936
RQ29 us900.c 0.2987654611
RQ40 us901.c 0.2953102884
RQ40 us1005.c 0.3326686994
RQ40 us3496.c 0.3346483652
RQ40 us1864.c 0.3884873769
RQ40 us1159.c 0.2980708101
RQ40 us894.c 0.3120912659
RQ40 us903.c 0.3446646521
RQ40 us1883.c 0.3375631532
RQ40 us3512.c 0.3773533982
RQ40 us1060.c 0.3128731774
RQ40 us3612.c 0.3484890496
RQ40 us748.c 0.3445652954
RQ40 us893.c 0.3143694234
RQ40 us897.c 0.2845768657
RQ40 us4020.c 0.3065842494
RQ40 us898.c 0.2972437465
RQ40 us896.c 0.3504482516
RQ40 us2174.c 0.3519130842
RQ40 us899.c 0.3172722705
RQ40 us895.c 0.2580281613
RQ40 us900.c 0.2581313012
RQ34 us901.c 0.3322367773
RQ34 us1005.c 0.3399326758
RQ34 us3496.c 0.2973526222
RQ34 us1864.c 0.3927905408
RQ34 us1159.c 0.3002481963
RQ34 us894.c 0.3307547089
RQ34 us903.c 0.3481785515
RQ34 us1883.c 0.3137158597
RQ34 us3512.c 0.3536038109
RQ34 us1060.c 0.3176383969
RQ34 us3612.c 0.3322611402
RQ34 us748.c 0.3399883309
RQ34 us893.c 0.3149109178
RQ34 us897.c 0.2682160692
RQ34 us4020.c 0.287635466
RQ34 us898.c 0.2923771091
RQ34 us896.c 0.3140661502
RQ34 us2174.c 0.3264929844
RQ34 us899.c 0.3077695654
RQ34 us895.c 0.2160468054
RQ34 us900.c 0.2220022468
RQ31 us901.c 0.5098626939
RQ31 us1005.c 0.5680924799
RQ31 us3496.c 0.5333124797
RQ31 us1864.c 0.6815831012
RQ31 us1159.c 0.5067134402
RQ31 us894.c 0.5267014068
RQ31 us903.c 0.5879989944
RQ31 us1883.c 0.6171646663
RQ31 us3512.c 0.6354791982
RQ31 us1060.c 0.5343660105
RQ31 us3612.c 0.5840625646
RQ31 us748.c 0.5953884071
RQ31 us893.c 0.5457739978
RQ31 us897.c 0.5124469146
RQ31 us4020.c 0.5136946811
RQ31 us898.c 0.5047353941
RQ31 us896.c 0.5689283814
RQ31 us2174.c 0.607229051
RQ31 us899.c 0.5438812101
RQ31 us895.c 0.4117409612
RQ31 us900.c 0.4318769252
RQ47 us901.c 0.4960262162
RQ47 us1005.c 0.6080000744
RQ47 us3496.c 0.4801689546
RQ47 us1864.c 0.6027585314
RQ47 us1159.c 0.4722233016
RQ47 us894.c 0.4962607419
RQ47 us903.c 0.5262194187
RQ47 us1883.c 0.5236536803
RQ47 us3512.c 0.552806422
RQ47 us1060.c 0.5115005738
RQ47 us3612.c 0.5596812224
RQ47 us748.c 0.5326647474
RQ47 us893.c 0.5072637261
RQ47 us897.c 0.4336540707
RQ47 us4020.c 0.4840180908
RQ47 us898.c 0.4866711578
RQ47 us896.c 0.5294393059
RQ47 us2174.c 0.5170426948
RQ47 us899.c 0.5116475398
RQ47 us895.c 0.4101087645
RQ47 us900.c 0.4271024562
RQ13 us901.c 0.2876820666
RQ13 us1005.c 0.3268670781
RQ13 us3496.c 0.2824465177
RQ13 us1864.c 0.3898756448
RQ13 us1159.c 0.3000848943
RQ13 us894.c 0.316273409
RQ13 us903.c 0.3196369961
RQ13 us1883.c 0.326951427
RQ13 us3512.c 0.3271275232
RQ13 us1060.c 0.3169446288
RQ13 us3612.c 0.3412489896
RQ13 us748.c 0.3224224737
RQ13 us893.c 0.3163895928
RQ13 us897.c 0.2578259507
RQ13 us4020.c 0.2786431935
RQ13 us898.c 0.2998010968
RQ13 us896.c 0.308389007
RQ13 us2174.c 0.3334765613
RQ13 us899.c 0.3017500024
RQ13 us895.c 0.2168648126
RQ13 us900.c 0.2208779178
RQ56 us901.c 0.436185672
RQ56 us1005.c 0.4919808622
RQ56 us3496.c 0.4649121165
RQ56 us1864.c 0.5811138937
RQ56 us1159.c 0.4470380473
RQ56 us894.c 0.4480736013
RQ56 us903.c 0.525251794
RQ56 us1883.c 0.5088536887
RQ56 us3512.c 0.5500657403
RQ56 us1060.c 0.4492248534
RQ56 us3612.c 0.5261493628
RQ56 us748.c 0.5285033867
RQ56 us893.c 0.4729084502
RQ56 us897.c 0.439047167
RQ56 us4020.c 0.4351030796
RQ56 us898.c 0.4301039518
RQ56 us896.c 0.5403002041
RQ56 us2174.c 0.5160788739
RQ56 us899.c 0.4630344309
RQ56 us895.c 0.4161197413
RQ56 us900.c 0.4320051602
RQ26 us901.c 0.4839782824
RQ26 us1005.c 0.5447748193
RQ26 us3496.c 0.4926480998
RQ26 us1864.c 0.6429180408
RQ26 us1159.c 0.4761076838
RQ26 us894.c 0.4936011686
RQ26 us903.c 0.5384803275
RQ26 us1883.c 0.5448741432
RQ26 us3512.c 0.5540850387
RQ26 us1060.c 0.5042210723
RQ26 us3612.c 0.5466397091
RQ26 us748.c 0.5497913599
RQ26 us893.c 0.5069132484
RQ26 us897.c 0.4230678238
RQ26 us4020.c 0.4869703414
RQ26 us898.c 0.4592791921
RQ26 us896.c 0.5226191742
RQ26 us2174.c 0.5443380874
RQ26 us899.c 0.4865100333
RQ26 us895.c 0.3964670999
RQ26 us900.c 0.4056725196
RQ6 us901.c 0.4802488804
RQ6 us1005.c 0.5338971853
RQ6 us3496.c 0.5146718044
RQ6 us1864.c 0.6258635095
RQ6 us1159.c 0.4785336531
RQ6 us894.c 0.4781442565
RQ6 us903.c 0.5495843471
RQ6 us1883.c 0.5591399462
RQ6 us3512.c 0.5737341674
RQ6 us1060.c 0.4959718131
RQ6 us3612.c 0.5513879688
RQ6 us748.c 0.554157974
RQ6 us893.c 0.498542919
RQ6 us897.c 0.4481093704
RQ6 us4020.c 0.4779248315
RQ6 us898.c 0.4721138348
RQ6 us896.c 0.5259714688
RQ6 us2174.c 0.5511639297
RQ6 us899.c 0.5090633614
RQ6 us895.c 0.3923708103
RQ6 us900.c 0.4002273696
RQ35 us901.c 0.4105992142
RQ35 us1005.c 0.4843080517
RQ35 us3496.c 0.4487961352
RQ35 us1864.c 0.5459460084
RQ35 us1159.c 0.4295964436
RQ35 us894.c 0.4033188872
RQ35 us903.c 0.4783777459
RQ35 us1883.c 0.4839371054
RQ35 us3512.c 0.5146415289
RQ35 us1060.c 0.4515322989
RQ35 us3612.c 0.4807252671
RQ35 us748.c 0.4852888232
RQ35 us893.c 0.4490816156
RQ35 us897.c 0.3795282555
RQ35 us4020.c 0.4262203911
RQ35 us898.c 0.4360047886
RQ35 us896.c 0.446688699
RQ35 us2174.c 0.4739732575
RQ35 us899.c 0.4516696334
RQ35 us895.c 0.3305647688
RQ35 us900.c 0.3402489788
RQ22 us901.c 0.3324721669
RQ22 us1005.c 0.3867569391
RQ22 us3496.c 0.3314375269
RQ22 us1864.c 0.4377479437
RQ22 us1159.c 0.3440853181
RQ22 us894.c 0.3277743559
RQ22 us903.c 0.3657345294
RQ22 us1883.c 0.3808312796
RQ22 us3512.c 0.3844860645
RQ22 us1060.c 0.3517298028
RQ22 us3612.c 0.3727688137
RQ22 us748.c 0.3664625412
RQ22 us893.c 0.3389634429
RQ22 us897.c 0.2952139692
RQ22 us4020.c 0.3291501298
RQ22 us898.c 0.3304445953
RQ22 us896.c 0.3416121089
RQ22 us2174.c 0.3603086555
RQ22 us899.c 0.3984727146
RQ22 us895.c 0.2469165762
RQ22 us900.c 0.2595891338
RQ57 us901.c 0.2832869417
RQ57 us1005.c 0.3230209015
RQ57 us3496.c 0.3109347298
RQ57 us1864.c 0.4345216573
RQ57 us1159.c 0.2745185473
RQ57 us894.c 0.2899457047
RQ57 us903.c 0.3505519488
RQ57 us1883.c 0.397553977
RQ57 us3512.c 0.3497340055
RQ57 us1060.c 0.3039666017
RQ57 us3612.c 0.3408404846
RQ57 us748.c 0.3671760536
RQ57 us893.c 0.3142924971
RQ57 us897.c 0.2490625994
RQ57 us4020.c 0.2821723606
RQ57 us898.c 0.2940899581
RQ57 us896.c 0.31397681
RQ57 us2174.c 0.3805968413
RQ57 us899.c 0.2847049418
RQ57 us895.c 0.2262416186
RQ57 us900.c 0.2253854683
RQ48 us901.c 0.5030659704
RQ48 us1005.c 0.6264126305
RQ48 us3496.c 0.5480039562
RQ48 us1864.c 0.672990661
RQ48 us1159.c 0.5306206299
RQ48 us894.c 0.520049703
RQ48 us903.c 0.5841148257
RQ48 us1883.c 0.5956282771
RQ48 us3512.c 0.65188744
RQ48 us1060.c 0.5359689778
RQ48 us3612.c 0.595342032
RQ48 us748.c 0.5939473459
RQ48 us893.c 0.5426910766
RQ48 us897.c 0.4937603145
RQ48 us4020.c 0.5105753813
RQ48 us898.c 0.4995018493
RQ48 us896.c 0.5646284205
RQ48 us2174.c 0.5952258414
RQ48 us899.c 0.5305124161
RQ48 us895.c 0.412574145
RQ48 us900.c 0.4297645197
RQ49 us901.c 0.2638025632
RQ49 us1005.c 0.4116039349
RQ49 us3496.c 0.268863576
RQ49 us1864.c 0.3651356979
RQ49 us1159.c 0.2885130817
RQ49 us894.c 0.2731001682
RQ49 us903.c 0.3077046997
RQ49 us1883.c 0.3093455486
RQ49 us3512.c 0.3089012368
RQ49 us1060.c 0.2755336976
RQ49 us3612.c 0.3092194382
RQ49 us748.c 0.3044969878
RQ49 us893.c 0.2845319371
RQ49 us897.c 0.2325306659
RQ49 us4020.c 0.2639259363
RQ49 us898.c 0.2640666503
RQ49 us896.c 0.2951581502
RQ49 us2174.c 0.3077004132
RQ49 us899.c 0.2601632981
RQ49 us895.c 0.2055793173
RQ49 us900.c 0.2105214917
RQ18 us901.c 0.3722256044
RQ18 us1005.c 0.410931627
RQ18 us3496.c 0.3763943974
RQ18 us1864.c 0.4820180989
RQ18 us1159.c 0.374213251
RQ18 us894.c 0.3727029584
RQ18 us903.c 0.4060150524
RQ18 us1883.c 0.4397545669
RQ18 us3512.c 0.4229882394
RQ18 us1060.c 0.386912551
RQ18 us3612.c 0.4189867711
RQ18 us748.c 0.4172842346
RQ18 us893.c 0.3688070096
RQ18 us897.c 0.3457605671
RQ18 us4020.c 0.4208074262
RQ18 us898.c 0.3819233411
RQ18 us896.c 0.3933101662
RQ18 us2174.c 0.4284968664
RQ18 us899.c 0.396128131
RQ18 us895.c 0.275896424
RQ18 us900.c 0.2892133926
RQ36 us901.c 0.2805123092
RQ36 us1005.c 0.379544126
RQ36 us3496.c 0.2883614117
RQ36 us1864.c 0.3655116267
RQ36 us1159.c 0.3292795023
RQ36 us894.c 0.2814886014
RQ36 us903.c 0.3516907245
RQ36 us1883.c 0.3407033676
RQ36 us3512.c 0.3505706774
RQ36 us1060.c 0.2983417946
RQ36 us3612.c 0.3784857292
RQ36 us748.c 0.3421604654
RQ36 us893.c 0.301979544
RQ36 us897.c 0.2532784101
RQ36 us4020.c 0.3138933232
RQ36 us898.c 0.3201550111
RQ36 us896.c 0.3319841404
RQ36 us2174.c 0.3471473134
RQ36 us899.c 0.3513434905
RQ36 us895.c 0.2376919491
RQ36 us900.c 0.2421809304
RQ14 us901.c 0.3501922396
RQ14 us1005.c 0.4257018234
RQ14 us3496.c 0.4368976181
RQ14 us1864.c 0.5022395238
RQ14 us1159.c 0.415595827
RQ14 us894.c 0.3724285745
RQ14 us903.c 0.4305796846
RQ14 us1883.c 0.4352050262
RQ14 us3512.c 0.5199181523
RQ14 us1060.c 0.4258165996
RQ14 us3612.c 0.4746809425
RQ14 us748.c 0.4344266373
RQ14 us893.c 0.3757123872
RQ14 us897.c 0.3567526155
RQ14 us4020.c 0.3855181648
RQ14 us898.c 0.3749819962
RQ14 us896.c 0.4367266503
RQ14 us2174.c 0.4365307971
RQ14 us899.c 0.3968918182
RQ14 us895.c 0.3319840979
RQ14 us900.c 0.3410371375
RQ51 us901.c 0.2833792329
RQ51 us1005.c 0.3796963489
RQ51 us3496.c 0.2995398033
RQ51 us1864.c 0.4023035736
RQ51 us1159.c 0.272273199
RQ51 us894.c 0.2885986817
RQ51 us903.c 0.3438458765
RQ51 us1883.c 0.3253365081
RQ51 us3512.c 0.3389546563
RQ51 us1060.c 0.3089503696
RQ51 us3612.c 0.376323852
RQ51 us748.c 0.3420847032
RQ51 us893.c 0.2978065074
RQ51 us897.c 0.2661413525
RQ51 us4020.c 0.2689503888
RQ51 us898.c 0.2616469829
RQ51 us896.c 0.3152684119
RQ51 us2174.c 0.3256246693
RQ51 us899.c 0.286016971
RQ51 us895.c 0.2140211342
RQ51 us900.c 0.2240936886
RQ23 us901.c 0.4813259332
RQ23 us1005.c 0.4711391116
RQ23 us3496.c 0.4517721781
RQ23 us1864.c 0.5677150329
RQ23 us1159.c 0.4238125296
RQ23 us894.c 0.4670673871
RQ23 us903.c 0.5083980019
RQ23 us1883.c 0.4908896467
RQ23 us3512.c 0.5124905868
RQ23 us1060.c 0.4979476771
RQ23 us3612.c 0.501504712
RQ23 us748.c 0.5129881794
RQ23 us893.c 0.4398969543
RQ23 us897.c 0.3890624641
RQ23 us4020.c 0.4126238544
RQ23 us898.c 0.4091755801
RQ23 us896.c 0.4634224757
RQ23 us2174.c 0.4906468663
RQ23 us899.c 0.454130207
RQ23 us895.c 0.3426513389
RQ23 us900.c 0.355591795
RQ42 us901.c 0.3802985683
RQ42 us1005.c 0.40561095
RQ42 us3496.c 0.3586154374
RQ42 us1864.c 0.4680081289
RQ42 us1159.c 0.360530952
RQ42 us894.c 0.3718434045
RQ42 us903.c 0.3847773185
RQ42 us1883.c 0.3856373638
RQ42 us3512.c 0.4036211651
RQ42 us1060.c 0.3909674283
RQ42 us3612.c 0.4178584443
RQ42 us748.c 0.3836596052
RQ42 us893.c 0.3444145924
RQ42 us897.c 0.3000960779
RQ42 us4020.c 0.330303614
RQ42 us898.c 0.3271704273
RQ42 us896.c 0.3726028024
RQ42 us2174.c 0.3687735413
RQ42 us899.c 0.3668041688
RQ42 us895.c 0.2637440441
RQ42 us900.c 0.2691155346
RQ32 us901.c 0.3979909425
RQ32 us1005.c 0.4386890043
RQ32 us3496.c 0.4249907211
RQ32 us1864.c 0.5468979916
RQ32 us1159.c 0.4138529168
RQ32 us894.c 0.4235074366
RQ32 us903.c 0.4582720406
RQ32 us1883.c 0.4596103467
RQ32 us3512.c 0.4642655636
RQ32 us1060.c 0.4040223096
RQ32 us3612.c 0.4771470552
RQ32 us748.c 0.4649361739
RQ32 us893.c 0.4138580033
RQ32 us897.c 0.3618565482
RQ32 us4020.c 0.386161626
RQ32 us898.c 0.3899402877
RQ32 us896.c 0.42685424
RQ32 us2174.c 0.471120198
RQ32 us899.c 0.4039504003
RQ32 us895.c 0.3076003487
RQ32 us900.c 0.3154125506
RQ37 us901.c 0.4414129492
RQ37 us1005.c 0.4753991993
RQ37 us3496.c 0.4176794701
RQ37 us1864.c 0.5221319114
RQ37 us1159.c 0.4235113795
RQ37 us894.c 0.4350437283
RQ37 us903.c 0.4839634388
RQ37 us1883.c 0.4525391476
RQ37 us3512.c 0.484814267
RQ37 us1060.c 0.4223871615
RQ37 us3612.c 0.462118175
RQ37 us748.c 0.4802769783
RQ37 us893.c 0.4166394251
RQ37 us897.c 0.3605442796
RQ37 us4020.c 0.4050559905
RQ37 us898.c 0.4005020196
RQ37 us896.c 0.4355916856
RQ37 us2174.c 0.4518693046
RQ37 us899.c 0.4577227555
RQ37 us895.c 0.3150753811
RQ37 us900.c 0.323968242
RQ8 us901.c 0.4774936209
RQ8 us1005.c 0.5319434757
RQ8 us3496.c 0.5063133584
RQ8 us1864.c 0.6191453732
RQ8 us1159.c 0.4826851949
RQ8 us894.c 0.4777186779
RQ8 us903.c 0.5381880939
RQ8 us1883.c 0.569221693
RQ8 us3512.c 0.5802753622
RQ8 us1060.c 0.4883298617
RQ8 us3612.c 0.5612129383
RQ8 us748.c 0.5507549628
RQ8 us893.c 0.4941081169
RQ8 us897.c 0.4383894948
RQ8 us4020.c 0.5033052916
RQ8 us898.c 0.4872902277
RQ8 us896.c 0.5083327034
RQ8 us2174.c 0.5557394599
RQ8 us899.c 0.5089099062
RQ8 us895.c 0.3755584572
RQ8 us900.c 0.3900315419
RQ19 us901.c 0.3014638231
RQ19 us1005.c 0.3653585917
RQ19 us3496.c 0.3207506187
RQ19 us1864.c 0.402775052
RQ19 us1159.c 0.3230418422
RQ19 us894.c 0.3106567995
RQ19 us903.c 0.3528778068
RQ19 us1883.c 0.344190301
RQ19 us3512.c 0.3740543168
RQ19 us1060.c 0.3126366329
RQ19 us3612.c 0.3826413912
RQ19 us748.c 0.3504144891
RQ19 us893.c 0.3120964393
RQ19 us897.c 0.2633246967
RQ19 us4020.c 0.2953730607
RQ19 us898.c 0.3000764685
RQ19 us896.c 0.3238884056
RQ19 us2174.c 0.3370786409
RQ19 us899.c 0.3281318869
RQ19 us895.c 0.2435873753
RQ19 us900.c 0.2453787686
RQ20 us901.c 0.3402242259
RQ20 us1005.c 0.3679744372
RQ20 us3496.c 0.3360583284
RQ20 us1864.c 0.4341332447
RQ20 us1159.c 0.3310813757
RQ20 us894.c 0.3500968316
RQ20 us903.c 0.3652670954
RQ20 us1883.c 0.3598632012
RQ20 us3512.c 0.3979718679
RQ20 us1060.c 0.3774508887
RQ20 us3612.c 0.3668375701
RQ20 us748.c 0.3717559473
RQ20 us893.c 0.3549167172
RQ20 us897.c 0.3061872347
RQ20 us4020.c 0.372385562
RQ20 us898.c 0.3219644775
RQ20 us896.c 0.3497905788
RQ20 us2174.c 0.3629267996
RQ20 us899.c 0.3628033053
RQ20 us895.c 0.2564736613
RQ20 us900.c 0.2706595598
RQ50 us901.c 0.3417755568
RQ50 us1005.c 0.4838907191
RQ50 us3496.c 0.4020100842
RQ50 us1864.c 0.4760816099
RQ50 us1159.c 0.4067606612
RQ50 us894.c 0.3619817762
RQ50 us903.c 0.4130076727
RQ50 us1883.c 0.4124183165
RQ50 us3512.c 0.4653232106
RQ50 us1060.c 0.3798585259
RQ50 us3612.c 0.4492792922
RQ50 us748.c 0.4190225023
RQ50 us893.c 0.3816133171
RQ50 us897.c 0.3332530766
RQ50 us4020.c 0.3791237869
RQ50 us898.c 0.3627804859
RQ50 us896.c 0.4018561734
RQ50 us2174.c 0.4139500296
RQ50 us899.c 0.3889372452
RQ50 us895.c 0.3036230013
RQ50 us900.c 0.3094317104
RQ15 us901.c 0.3793981005
RQ15 us1005.c 0.4054059777
RQ15 us3496.c 0.4086492031
RQ15 us1864.c 0.5037257333
RQ15 us1159.c 0.3614036212
RQ15 us894.c 0.3769595853
RQ15 us903.c 0.4313772576
RQ15 us1883.c 0.4478137835
RQ15 us3512.c 0.4536508977
RQ15 us1060.c 0.3843783602
RQ15 us3612.c 0.426619043
RQ15 us748.c 0.4432032584
RQ15 us893.c 0.3850087488
RQ15 us897.c 0.3530027519
RQ15 us4020.c 0.370724068
RQ15 us898.c 0.3686579135
RQ15 us896.c 0.422693711
RQ15 us2174.c 0.4401622953
RQ15 us899.c 0.4021978848
RQ15 us895.c 0.3028601564
RQ15 us900.c 0.3127573697
RQ24 us901.c 0.3870433337
RQ24 us1005.c 0.4157966897
RQ24 us3496.c 0.3961340466
RQ24 us1864.c 0.4863685911
RQ24 us1159.c 0.3715188076
RQ24 us894.c 0.3984478457
RQ24 us903.c 0.4573919229
RQ24 us1883.c 0.427543235
RQ24 us3512.c 0.4590114244
RQ24 us1060.c 0.388816513
RQ24 us3612.c 0.4415826719
RQ24 us748.c 0.4618697048
RQ24 us893.c 0.3877457564
RQ24 us897.c 0.3284758608
RQ24 us4020.c 0.3773857534
RQ24 us898.c 0.373004067
RQ24 us896.c 0.4074354785
RQ24 us2174.c 0.4477267695
RQ24 us899.c 0.4093248176
RQ24 us895.c 0.302979507
RQ24 us900.c 0.309333711
RQ4 us901.c 0.4406985851
RQ4 us1005.c 0.4817875295
RQ4 us3496.c 0.431809887
RQ4 us1864.c 0.5383605525
RQ4 us1159.c 0.4533523562
RQ4 us894.c 0.4381230818
RQ4 us903.c 0.4853728274
RQ4 us1883.c 0.4653235209
RQ4 us3512.c 0.4957288263
RQ4 us1060.c 0.4258322727
RQ4 us3612.c 0.5139726785
RQ4 us748.c 0.4849997219
RQ4 us893.c 0.430931429
RQ4 us897.c 0.4104032355
RQ4 us4020.c 0.4210364382
RQ4 us898.c 0.4244758501
RQ4 us896.c 0.4550157969
RQ4 us2174.c 0.4725365166
RQ4 us899.c 0.4568175214
RQ4 us895.c 0.3210348113
RQ4 us900.c 0.3368132655
RQ11 us901.c 0.3947612503
RQ11 us1005.c 0.4390035183
RQ11 us3496.c 0.4316769406
RQ11 us1864.c 0.5226391818
RQ11 us1159.c 0.3934355404
RQ11 us894.c 0.4050198898
RQ11 us903.c 0.4617815693
RQ11 us1883.c 0.4753852313
RQ11 us3512.c 0.497428439
RQ11 us1060.c 0.3927842693
RQ11 us3612.c 0.4626996962
RQ11 us748.c 0.4661220789
RQ11 us893.c 0.4331221195
RQ11 us897.c 0.3837340818
RQ11 us4020.c 0.4009805686
RQ11 us898.c 0.4186565408
RQ11 us896.c 0.437247816
RQ11 us2174.c 0.4646730134
RQ11 us899.c 0.4308080869
RQ11 us895.c 0.3157799867
RQ11 us900.c 0.3273534166
