RQ11 us899.c 0.1
RQ11 us1159.c 0.1
RQ11 us3612.c 0.1
RQ11 us1883.c 0.1
RQ11 us903.c 0.1
RQ11 us748.c 0.1
RQ11 us1005.c 0.1
RQ11 us898.c 0.1
RQ11 us2174.c 0.1
RQ11 us4020.c 0.1
RQ11 us3512.c 0.1
RQ11 us1864.c 0.1
RQ11 us893.c 0.1
RQ11 us894.c 0.1
RQ11 us901.c 0.1
RQ11 us897.c 0.1
RQ11 us3496.c 0.1
RQ11 us896.c 0.1
RQ11 us1060.c 0.1
RQ11 us900.c 0.1
RQ11 us895.c 0.1
RQ13 us1005.c 0.2121635174
RQ13 us1159.c 0.1899228703
RQ13 us899.c 0.1888273274
RQ13 us901.c 0.177804652
RQ13 us1883.c 0.1761649879
RQ13 us898.c 0.1713978144
RQ13 us3512.c 0.170697289
RQ13 us3612.c 0.168373388
RQ13 us894.c 0.1661979985
RQ13 us903.c 0.1644996621
RQ13 us897.c 0.1644840687
RQ13 us748.c 0.158726585
RQ13 us893.c 0.153594232
RQ13 us3496.c 0.1522457715
RQ13 us4020.c 0.1516010504
RQ13 us2174.c 0.1499120406
RQ13 us1864.c 0.1413989121
RQ13 us896.c 0.1354895192
RQ13 us1060.c 0.1288177701
RQ13 us900.c 0.1142511412
RQ13 us895.c 0.1052401885
RQ14 us1159.c 0.1733169687
RQ14 us3512.c 0.1672611435
RQ14 us1005.c 0.1637223008
RQ14 us899.c 0.1540957191
RQ14 us3496.c 0.1534714996
RQ14 us3612.c 0.147048858
RQ14 us1883.c 0.1416090667
RQ14 us897.c 0.1405160515
RQ14 us901.c 0.1385675796
RQ14 us4020.c 0.1362314636
RQ14 us898.c 0.1349044795
RQ14 us894.c 0.1325566201
RQ14 us896.c 0.1199682235
RQ14 us748.c 0.1186917285
RQ14 us903.c 0.1185573972
RQ14 us2174.c 0.1178570527
RQ14 us893.c 0.1136600683
RQ14 us900.c 0.1120063691
RQ14 us1060.c 0.1112409188
RQ14 us1864.c 0.1093578512
RQ14 us895.c 0.1074846301
RQ15 us1159.c 0.1328904457
RQ15 us1005.c 0.1316444696
RQ15 us901.c 0.127153703
RQ15 us894.c 0.1196751069
RQ15 us899.c 0.1185383692
RQ15 us898.c 0.1184104677
RQ15 us3612.c 0.1157825686
RQ15 us3496.c 0.1130366761
RQ15 us1883.c 0.1120653021
RQ15 us897.c 0.1102139381
RQ15 us3512.c 0.109865732
RQ15 us4020.c 0.1070184948
RQ15 us903.c 0.1027820239
RQ15 us748.c 0.1006757841
RQ15 us893.c 0.1
RQ15 us1060.c 0.1
RQ15 us1864.c 0.1
RQ15 us2174.c 0.1
RQ15 us896.c 0.1
RQ15 us900.c 0.1
RQ15 us895.c 0.1
RQ16 us1005.c 0.1470179088
RQ16 us1159.c 0.1383636192
RQ16 us899.c 0.1231339067
RQ16 us3612.c 0.1226336156
RQ16 us898.c 0.1207390283
RQ16 us1883.c 0.1188874988
RQ16 us903.c 0.1111779467
RQ16 us4020.c 0.110759384
RQ16 us897.c 0.1041410509
RQ16 us901.c 0.1034075166
RQ16 us748.c 0.1002450062
RQ16 us3512.c 0.1
RQ16 us894.c 0.1
RQ16 us893.c 0.1
RQ16 us3496.c 0.1
RQ16 us1864.c 0.1
RQ16 us2174.c 0.1
RQ16 us896.c 0.1
RQ16 us1060.c 0.1
RQ16 us900.c 0.1
RQ16 us895.c 0.1
RQ18 us1005.c 0.1742668375
RQ18 us901.c 0.1508471049
RQ18 us1159.c 0.1486786975
RQ18 us899.c 0.1483331104
RQ18 us898.c 0.1474718341
RQ18 us3612.c 0.1400252986
RQ18 us1883.c 0.1388234598
RQ18 us894.c 0.1386869788
RQ18 us897.c 0.1327763199
RQ18 us3496.c 0.1303180922
RQ18 us903.c 0.1294320443
RQ18 us4020.c 0.1284007226
RQ18 us3512.c 0.1239918078
RQ18 us748.c 0.1233032078
RQ18 us1864.c 0.1195701052
RQ18 us893.c 0.1154428623
RQ18 us2174.c 0.1146397333
RQ18 us1060.c 0.1
RQ18 us896.c 0.1
RQ18 us900.c 0.1
RQ18 us895.c 0.1
RQ19 us1005.c 0.1759018905
RQ19 us1159.c 0.1743320549
RQ19 us899.c 0.1540671606
RQ19 us3612.c 0.1536960571
RQ19 us898.c 0.1487301977
RQ19 us3512.c 0.1480170735
RQ19 us897.c 0.1479483846
RQ19 us901.c 0.1428013689
RQ19 us3496.c 0.1422882744
RQ19 us4020.c 0.1416588638
RQ19 us1883.c 0.1391104833
RQ19 us894.c 0.1387575927
RQ19 us903.c 0.1274582696
RQ19 us893.c 0.1255109883
RQ19 us896.c 0.1243808724
RQ19 us748.c 0.1237465294
RQ19 us2174.c 0.1174076385
RQ19 us900.c 0.1159406107
RQ19 us1864.c 0.1135337354
RQ19 us895.c 0.1099587348
RQ19 us1060.c 0.1088188624
RQ20 us1005.c 0.1480039322
RQ20 us1159.c 0.1279523831
RQ20 us901.c 0.1278419879
RQ20 us899.c 0.1233477429
RQ20 us898.c 0.1196101834
RQ20 us894.c 0.1192930182
RQ20 us897.c 0.1178666005
RQ20 us3612.c 0.1155236129
RQ20 us3496.c 0.1154792189
RQ20 us4020.c 0.1095285425
RQ20 us1883.c 0.1073398601
RQ20 us3512.c 0.1037060309
RQ20 us903.c 0.1
RQ20 us893.c 0.1
RQ20 us748.c 0.1
RQ20 us1864.c 0.1
RQ20 us2174.c 0.1
RQ20 us896.c 0.1
RQ20 us1060.c 0.1
RQ20 us900.c 0.1
RQ20 us895.c 0.1
RQ22 us1005.c 0.1823017744
RQ22 us899.c 0.154743437
RQ22 us901.c 0.1491899061
RQ22 us898.c 0.1462248451
RQ22 us1159.c 0.1444555127
RQ22 us3612.c 0.1375228125
RQ22 us3496.c 0.136519518
RQ22 us1883.c 0.1361526425
RQ22 us894.c 0.1360041704
RQ22 us897.c 0.1347501419
RQ22 us903.c 0.131157015
RQ22 us3512.c 0.1295375182
RQ22 us748.c 0.1251128673
RQ22 us4020.c 0.1242685053
RQ22 us893.c 0.1165456815
RQ22 us1864.c 0.1116473004
RQ22 us2174.c 0.1099209272
RQ22 us896.c 0.1
RQ22 us1060.c 0.1
RQ22 us900.c 0.1
RQ22 us895.c 0.1
RQ23 us1005.c 0.136939588
RQ23 us3612.c 0.119112109
RQ23 us899.c 0.1114136967
RQ23 us901.c 0.1100679902
RQ23 us898.c 0.107346502
RQ23 us1159.c 0.1062090051
RQ23 us1883.c 0.1002386211
RQ23 us894.c 0.1
RQ23 us903.c 0.1
RQ23 us897.c 0.1
RQ23 us4020.c 0.1
RQ23 us3512.c 0.1
RQ23 us748.c 0.1
RQ23 us3496.c 0.1
RQ23 us1060.c 0.1
RQ23 us893.c 0.1
RQ23 us2174.c 0.1
RQ23 us896.c 0.1
RQ23 us1864.c 0.1
RQ23 us900.c 0.1
RQ23 us895.c 0.1
RQ24 us3612.c 0.1248023864
RQ24 us1159.c 0.1161667616
RQ24 us1005.c 0.1039172659
RQ24 us898.c 0.1
RQ24 us899.c 0.1
RQ24 us748.c 0.1
RQ24 us903.c 0.1
RQ24 us893.c 0.1
RQ24 us1883.c 0.1
RQ24 us3512.c 0.1
RQ24 us901.c 0.1
RQ24 us897.c 0.1
RQ24 us3496.c 0.1
RQ24 us894.c 0.1
RQ24 us4020.c 0.1
RQ24 us2174.c 0.1
RQ24 us1864.c 0.1
RQ24 us1060.c 0.1
RQ24 us896.c 0.1
RQ24 us895.c 0.1
RQ24 us900.c 0.1
RQ25 us1005.c 0.1849103129
RQ25 us1159.c 0.1573264765
RQ25 us899.c 0.1466547919
RQ25 us3612.c 0.1456472773
RQ25 us898.c 0.1297647524
RQ25 us1883.c 0.1279293743
RQ25 us897.c 0.1276611183
RQ25 us903.c 0.1223908678
RQ25 us4020.c 0.1219125973
RQ25 us901.c 0.1200992576
RQ25 us748.c 0.118430207
RQ25 us894.c 0.1181491417
RQ25 us3496.c 0.1160585564
RQ25 us3512.c 0.116027738
RQ25 us893.c 0.1119207895
RQ25 us896.c 0.1025473212
RQ25 us2174.c 0.1020913462
RQ25 us1864.c 0.1
RQ25 us900.c 0.1
RQ25 us1060.c 0.1
RQ25 us895.c 0.1
RQ26 us1005.c 0.144697886
RQ26 us901.c 0.1410484991
RQ26 us894.c 0.1269129473
RQ26 us1159.c 0.1223438773
RQ26 us899.c 0.1174581261
RQ26 us897.c 0.1120526985
RQ26 us898.c 0.1099580729
RQ26 us3612.c 0.1076011287
RQ26 us1883.c 0.1071412625
RQ26 us3496.c 0.1070794031
RQ26 us4020.c 0.1057055068
RQ26 us903.c 0.1034429428
RQ26 us3512.c 0.1
RQ26 us748.c 0.1
RQ26 us1864.c 0.1
RQ26 us893.c 0.1
RQ26 us2174.c 0.1
RQ26 us896.c 0.1
RQ26 us1060.c 0.1
RQ26 us900.c 0.1
RQ26 us895.c 0.1
RQ29 us1005.c 0.1957443759
RQ29 us898.c 0.1948281088
RQ29 us1159.c 0.1932114126
RQ29 us897.c 0.1861585005
RQ29 us899.c 0.1799756019
RQ29 us4020.c 0.1799441238
RQ29 us3612.c 0.1736700107
RQ29 us901.c 0.1701961447
RQ29 us3496.c 0.1700444206
RQ29 us3512.c 0.1650875928
RQ29 us1883.c 0.1640465978
RQ29 us894.c 0.1627457681
RQ29 us893.c 0.1610639331
RQ29 us903.c 0.1546646012
RQ29 us748.c 0.1467114385
RQ29 us1864.c 0.1440418933
RQ29 us2174.c 0.1424502247
RQ29 us896.c 0.1401941862
RQ29 us1060.c 0.1363108953
RQ29 us900.c 0.1252614039
RQ29 us895.c 0.1163843318
RQ31 us897.c 0.1
RQ31 us1005.c 0.1
RQ31 us1159.c 0.1
RQ31 us3496.c 0.1
RQ31 us898.c 0.1
RQ31 us899.c 0.1
RQ31 us1883.c 0.1
RQ31 us3612.c 0.1
RQ31 us4020.c 0.1
RQ31 us3512.c 0.1
RQ31 us896.c 0.1
RQ31 us1864.c 0.1
RQ31 us894.c 0.1
RQ31 us903.c 0.1
RQ31 us901.c 0.1
RQ31 us748.c 0.1
RQ31 us900.c 0.1
RQ31 us2174.c 0.1
RQ31 us893.c 0.1
RQ31 us895.c 0.1
RQ31 us1060.c 0.1
RQ32 us1005.c 0.1529392008
RQ32 us901.c 0.1525926702
RQ32 us897.c 0.1479639902
RQ32 us3612.c 0.1467535745
RQ32 us894.c 0.143964568
RQ32 us1159.c 0.1438696924
RQ32 us898.c 0.1379892442
RQ32 us3496.c 0.1319787087
RQ32 us3512.c 0.1304605257
RQ32 us899.c 0.1288904826
RQ32 us1883.c 0.1252373865
RQ32 us903.c 0.1224684428
RQ32 us4020.c 0.121373082
RQ32 us748.c 0.1175859991
RQ32 us896.c 0.1089316335
RQ32 us1864.c 0.1081463809
RQ32 us893.c 0.107306149
RQ32 us2174.c 0.1061268901
RQ32 us1060.c 0.1004013825
RQ32 us900.c 0.1
RQ32 us895.c 0.1
RQ33 us897.c 0.1626014433
RQ33 us3496.c 0.1614804129
RQ33 us1005.c 0.1594790703
RQ33 us3512.c 0.1525557816
RQ33 us1159.c 0.1457491854
RQ33 us898.c 0.1422022244
RQ33 us899.c 0.1396410468
RQ33 us901.c 0.1372475378
RQ33 us3612.c 0.1363276673
RQ33 us894.c 0.1330342675
RQ33 us4020.c 0.1327659241
RQ33 us1883.c 0.1283899432
RQ33 us903.c 0.1165041227
RQ33 us748.c 0.1117174712
RQ33 us893.c 0.1106342826
RQ33 us1864.c 0.1101290583
RQ33 us896.c 0.1090596911
RQ33 us2174.c 0.1014124636
RQ33 us900.c 0.1
RQ33 us1060.c 0.1
RQ33 us895.c 0.1
RQ34 us1005.c 0.1976538188
RQ34 us898.c 0.1834783651
RQ34 us899.c 0.1802008448
RQ34 us897.c 0.1780600964
RQ34 us901.c 0.1745039851
RQ34 us3512.c 0.1742594804
RQ34 us3612.c 0.1715265869
RQ34 us894.c 0.1667432797
RQ34 us1159.c 0.1652651919
RQ34 us903.c 0.1650957547
RQ34 us3496.c 0.1619742413
RQ34 us1883.c 0.1598284538
RQ34 us748.c 0.1574980469
RQ34 us893.c 0.1564794298
RQ34 us2174.c 0.1424014936
RQ34 us4020.c 0.1414389037
RQ34 us1864.c 0.1268032431
RQ34 us896.c 0.1260427419
RQ34 us1060.c 0.1223045703
RQ34 us900.c 0.1001834055
RQ34 us895.c 0.1
RQ35 us1005.c 0.1474183921
RQ35 us3512.c 0.134304652
RQ35 us3496.c 0.1322182129
RQ35 us897.c 0.1278989141
RQ35 us899.c 0.1237902044
RQ35 us898.c 0.1201594237
RQ35 us1883.c 0.1184048519
RQ35 us901.c 0.118079332
RQ35 us1159.c 0.1168824571
RQ35 us903.c 0.1140359297
RQ35 us4020.c 0.1133051974
RQ35 us894.c 0.1097879632
RQ35 us3612.c 0.1096202865
RQ35 us748.c 0.1068190067
RQ35 us2174.c 0.1
RQ35 us893.c 0.1
RQ35 us1864.c 0.1
RQ35 us896.c 0.1
RQ35 us1060.c 0.1
RQ35 us900.c 0.1
RQ35 us895.c 0.1
RQ36 us1159.c 0.1929386079
RQ36 us899.c 0.1857722235
RQ36 us3612.c 0.1836484621
RQ36 us1005.c 0.1779310502
RQ36 us898.c 0.1651634056
RQ36 us897.c 0.149046818
RQ36 us3496.c 0.1449513846
RQ36 us3512.c 0.1445922385
RQ36 us901.c 0.1376960733
RQ36 us1883.c 0.1347477624
RQ36 us4020.c 0.1338340964
RQ36 us894.c 0.1316387723
RQ36 us903.c 0.1283297983
RQ36 us748.c 0.1267156157
RQ36 us893.c 0.1247631583
RQ36 us2174.c 0.1146962426
RQ36 us896.c 0.1107521836
RQ36 us1864.c 0.1044848994
RQ36 us900.c 0.1
RQ36 us1060.c 0.1
RQ36 us895.c 0.1
RQ37 us1005.c 0.1655292956
RQ37 us899.c 0.1579160277
RQ37 us1159.c 0.1504919812
RQ37 us3612.c 0.1448861308
RQ37 us898.c 0.1448662738
RQ37 us3512.c 0.1371907562
RQ37 us3496.c 0.1282910827
RQ37 us897.c 0.1201621355
RQ37 us893.c 0.1146950086
RQ37 us901.c 0.1141590255
RQ37 us1883.c 0.1140899331
RQ37 us903.c 0.1132915798
RQ37 us894.c 0.1129098594
RQ37 us748.c 0.1102438047
RQ37 us4020.c 0.1032898072
RQ37 us2174.c 0.1
RQ37 us896.c 0.1
RQ37 us1864.c 0.1
RQ37 us1060.c 0.1
RQ37 us900.c 0.1
RQ37 us895.c 0.1
RQ38 us1005.c 0.1835322621
RQ38 us899.c 0.1763260651
RQ38 us3612.c 0.1720792122
RQ38 us898.c 0.1700976361
RQ38 us1883.c 0.1683389187
RQ38 us1159.c 0.1677822516
RQ38 us903.c 0.1610928512
RQ38 us748.c 0.1520918019
RQ38 us893.c 0.147932949
RQ38 us3512.c 0.1432341069
RQ38 us897.c 0.1392691054
RQ38 us2174.c 0.131916088
RQ38 us901.c 0.1312341332
RQ38 us3496.c 0.127862232
RQ38 us894.c 0.1268326424
RQ38 us4020.c 0.1250528692
RQ38 us896.c 0.1153453716
RQ38 us1864.c 0.11455657
RQ38 us1060.c 0.1014729295
RQ38 us900.c 0.1
RQ38 us895.c 0.1
RQ4 us1005.c 0.2256647224
RQ4 us897.c 0.2184403471
RQ4 us899.c 0.2069192705
RQ4 us3496.c 0.2067746553
RQ4 us898.c 0.2061053595
RQ4 us1159.c 0.2031838337
RQ4 us3512.c 0.2029715798
RQ4 us4020.c 0.2010875233
RQ4 us3612.c 0.2003069833
RQ4 us901.c 0.1925858077
RQ4 us1883.c 0.18973819
RQ4 us894.c 0.1845156458
RQ4 us896.c 0.1749571253
RQ4 us903.c 0.1716519141
RQ4 us748.c 0.168358785
RQ4 us893.c 0.1680822328
RQ4 us1864.c 0.1640979877
RQ4 us2174.c 0.1639993861
RQ4 us900.c 0.1530733848
RQ4 us1060.c 0.1486927704
RQ4 us895.c 0.1426317816
RQ40 us903.c 0.1
RQ40 us901.c 0.1
RQ40 us748.c 0.1
RQ40 us893.c 0.1
RQ40 us1005.c 0.1
RQ40 us894.c 0.1
RQ40 us1883.c 0.1
RQ40 us899.c 0.1
RQ40 us1159.c 0.1
RQ40 us898.c 0.1
RQ40 us3512.c 0.1
RQ40 us1864.c 0.1
RQ40 us2174.c 0.1
RQ40 us1060.c 0.1
RQ40 us897.c 0.1
RQ40 us3496.c 0.1
RQ40 us3612.c 0.1
RQ40 us4020.c 0.1
RQ40 us900.c 0.1
RQ40 us896.c 0.1
RQ40 us895.c 0.1
RQ41 us1883.c 0.1117289871
RQ41 us3612.c 0.1048276079
RQ41 us903.c 0.1040007037
RQ41 us1159.c 0.1030157227
RQ41 us1005.c 0.1009713636
RQ41 us898.c 0.1
RQ41 us748.c 0.1
RQ41 us899.c 0.1
RQ41 us3512.c 0.1
RQ41 us2174.c 0.1
RQ41 us893.c 0.1
RQ41 us901.c 0.1
RQ41 us897.c 0.1
RQ41 us894.c 0.1
RQ41 us3496.c 0.1
RQ41 us1060.c 0.1
RQ41 us896.c 0.1
RQ41 us1864.c 0.1
RQ41 us4020.c 0.1
RQ41 us900.c 0.1
RQ41 us895.c 0.1
RQ42 us3612.c 0.1902099672
RQ42 us1159.c 0.1899416706
RQ42 us1005.c 0.1876651002
RQ42 us3496.c 0.1805200624
RQ42 us897.c 0.1755209285
RQ42 us898.c 0.173830039
RQ42 us899.c 0.1738065106
RQ42 us3512.c 0.1567271785
RQ42 us4020.c 0.155955329
RQ42 us901.c 0.1546007158
RQ42 us894.c 0.146373952
RQ42 us1883.c 0.1389625015
RQ42 us903.c 0.1295695418
RQ42 us893.c 0.1273562129
RQ42 us748.c 0.1270440607
RQ42 us1864.c 0.1177926405
RQ42 us2174.c 0.1161452832
RQ42 us896.c 0.1105035451
RQ42 us1060.c 0.1
RQ42 us900.c 0.1
RQ42 us895.c 0.1
RQ47 us1159.c 0.1799823031
RQ47 us899.c 0.1637216552
RQ47 us1005.c 0.1600666062
RQ47 us898.c 0.1583174239
RQ47 us897.c 0.156218449
RQ47 us3612.c 0.1411860025
RQ47 us4020.c 0.1359752003
RQ47 us3512.c 0.1309712426
RQ47 us3496.c 0.1298921497
RQ47 us896.c 0.1293193644
RQ47 us901.c 0.1265977584
RQ47 us894.c 0.1231969083
RQ47 us1883.c 0.1229216622
RQ47 us903.c 0.1217407627
RQ47 us893.c 0.1215996255
RQ47 us748.c 0.1179752533
RQ47 us900.c 0.1165392734
RQ47 us895.c 0.111410951
RQ47 us2174.c 0.1086802448
RQ47 us1864.c 0.1040306666
RQ47 us1060.c 0.1
RQ48 us1005.c 0.1127683725
RQ48 us900.c 0.1093566273
RQ48 us1159.c 0.1060259494
RQ48 us3512.c 0.1040471102
RQ48 us895.c 0.1011698359
RQ48 us896.c 0.1
RQ48 us3496.c 0.1
RQ48 us899.c 0.1
RQ48 us898.c 0.1
RQ48 us897.c 0.1
RQ48 us4020.c 0.1
RQ48 us3612.c 0.1
RQ48 us1883.c 0.1
RQ48 us901.c 0.1
RQ48 us893.c 0.1
RQ48 us1864.c 0.1
RQ48 us903.c 0.1
RQ48 us748.c 0.1
RQ48 us894.c 0.1
RQ48 us2174.c 0.1
RQ48 us1060.c 0.1
RQ49 us1159.c 0.2059460216
RQ49 us1005.c 0.2051947961
RQ49 us899.c 0.1671924761
RQ49 us898.c 0.1583900537
RQ49 us3612.c 0.1575812935
RQ49 us1883.c 0.1525163653
RQ49 us903.c 0.1520780106
RQ49 us893.c 0.1493250575
RQ49 us3512.c 0.1469868195
RQ49 us748.c 0.1451346203
RQ49 us894.c 0.1416191293
RQ49 us897.c 0.1413745782
RQ49 us901.c 0.140072765
RQ49 us2174.c 0.1372979557
RQ49 us900.c 0.1360001012
RQ49 us896.c 0.1342145205
RQ49 us3496.c 0.1332141282
RQ49 us895.c 0.1312309695
RQ49 us4020.c 0.1311677162
RQ49 us1864.c 0.1270507561
RQ49 us1060.c 0.1151467542
RQ50 us1005.c 0.1615400766
RQ50 us1159.c 0.1613567412
RQ50 us3612.c 0.1517186125
RQ50 us899.c 0.1457221559
RQ50 us898.c 0.1439075836
RQ50 us3496.c 0.1268838798
RQ50 us1883.c 0.1247089791
RQ50 us3512.c 0.1207089693
RQ50 us897.c 0.1205427183
RQ50 us4020.c 0.1167759411
RQ50 us893.c 0.1144896497
RQ50 us903.c 0.1117419044
RQ50 us748.c 0.1110844314
RQ50 us894.c 0.1087399973
RQ50 us896.c 0.1053654281
RQ50 us2174.c 0.1049712737
RQ50 us901.c 0.1048036987
RQ50 us1864.c 0.1
RQ50 us900.c 0.1
RQ50 us895.c 0.1
RQ50 us1060.c 0.1
RQ51 us1005.c 0.2322439194
RQ51 us1159.c 0.2022072663
RQ51 us3612.c 0.1982039738
RQ51 us899.c 0.1839836576
RQ51 us898.c 0.1824833863
RQ51 us901.c 0.1755510896
RQ51 us897.c 0.1730255593
RQ51 us1883.c 0.1712174342
RQ51 us894.c 0.1677806663
RQ51 us903.c 0.1659474978
RQ51 us3512.c 0.1637250148
RQ51 us3496.c 0.1626220529
RQ51 us748.c 0.161383584
RQ51 us893.c 0.1580421062
RQ51 us4020.c 0.1563362978
RQ51 us2174.c 0.1468036697
RQ51 us1864.c 0.1301367882
RQ51 us1060.c 0.1263545077
RQ51 us896.c 0.1239347929
RQ51 us900.c 0.1
RQ51 us895.c 0.1
RQ55 us903.c 0.2810924908
RQ55 us748.c 0.2803759
RQ55 us2174.c 0.2780693128
RQ55 us1864.c 0.2679062631
RQ55 us1883.c 0.2520137568
RQ55 us895.c 0.2483828559
RQ55 us900.c 0.2453550876
RQ55 us3512.c 0.2453168708
RQ55 us896.c 0.2423104696
RQ55 us901.c 0.2373150135
RQ55 us893.c 0.2349994623
RQ55 us1060.c 0.2342031223
RQ55 us894.c 0.2318852927
RQ55 us3496.c 0.2198186133
RQ55 us899.c 0.2111418007
RQ55 us1159.c 0.209788373
RQ55 us4020.c 0.1987111591
RQ55 us1005.c 0.1972195397
RQ55 us3612.c 0.1897296043
RQ55 us897.c 0.1886213361
RQ55 us898.c 0.1868226515
RQ56 us1005.c 0.2031595251
RQ56 us1159.c 0.1950807472
RQ56 us900.c 0.193022863
RQ56 us896.c 0.1907818927
RQ56 us895.c 0.1904988721
RQ56 us903.c 0.1847814558
RQ56 us901.c 0.1831629729
RQ56 us748.c 0.1793508416
RQ56 us3512.c 0.1791839784
RQ56 us899.c 0.1786505932
RQ56 us894.c 0.1726076777
RQ56 us893.c 0.168879595
RQ56 us2174.c 0.1644827657
RQ56 us898.c 0.1619110024
RQ56 us1883.c 0.1613408422
RQ56 us897.c 0.1559798347
RQ56 us1864.c 0.1549096602
RQ56 us1060.c 0.1485344914
RQ56 us3496.c 0.1466093932
RQ56 us3612.c 0.1453336742
RQ56 us4020.c 0.1433323503
RQ57 us903.c 0.2734095047
RQ57 us748.c 0.2698736564
RQ57 us2174.c 0.26361587
RQ57 us901.c 0.2619064168
RQ57 us1864.c 0.2590061008
RQ57 us3512.c 0.2555680079
RQ57 us1883.c 0.2544945633
RQ57 us894.c 0.2535865694
RQ57 us893.c 0.245454883
RQ57 us899.c 0.2364662795
RQ57 us1060.c 0.2314331959
RQ57 us896.c 0.2292992128
RQ57 us1159.c 0.2291550372
RQ57 us1005.c 0.2281141896
RQ57 us895.c 0.2263400872
RQ57 us900.c 0.2262670692
RQ57 us3496.c 0.2208581774
RQ57 us898.c 0.2187831129
RQ57 us3612.c 0.2094220094
RQ57 us4020.c 0.2025660972
RQ57 us897.c 0.2021006507
RQ6 us897.c 0.1896342085
RQ6 us1159.c 0.1782738412
RQ6 us898.c 0.1764333051
RQ6 us899.c 0.1758290911
RQ6 us1005.c 0.1741613792
RQ6 us4020.c 0.1708014705
RQ6 us3496.c 0.1657803278
RQ6 us3612.c 0.1592461957
RQ6 us901.c 0.1572048312
RQ6 us3512.c 0.1513099302
RQ6 us894.c 0.1507979019
RQ6 us1883.c 0.1372434093
RQ6 us896.c 0.1340165251
RQ6 us893.c 0.1337294742
RQ6 us903.c 0.13313826
RQ6 us748.c 0.1286319349
RQ6 us1864.c 0.1268597938
RQ6 us900.c 0.1204197459
RQ6 us2174.c 0.115426235
RQ6 us1060.c 0.112045419
RQ6 us895.c 0.1080250078
RQ8 us1005.c 0.1280441111
RQ8 us1159.c 0.1079019023
RQ8 us898.c 0.1049188132
RQ8 us3612.c 0.1025735736
RQ8 us901.c 0.1
RQ8 us899.c 0.1
RQ8 us4020.c 0.1
RQ8 us1883.c 0.1
RQ8 us894.c 0.1
RQ8 us897.c 0.1
RQ8 us903.c 0.1
RQ8 us3496.c 0.1
RQ8 us748.c 0.1
RQ8 us3512.c 0.1
RQ8 us2174.c 0.1
RQ8 us893.c 0.1
RQ8 us1864.c 0.1
RQ8 us896.c 0.1
RQ8 us1060.c 0.1
RQ8 us900.c 0.1
RQ8 us895.c 0.1
