RQ28 est_client_http.c 0.1621621663
RQ28 est_proxy.c 0.2656099681
RQ28 est_client_proxy.h 0.2749963761
RQ28 est_ossl_util.c 0.1402086117
RQ28 est.c 0.1548209422
RQ28 est_client_proxy.c 0.1170942407
RQ28 est_server_http.c 0.1811401811
RQ28 est_locl.h 0.2319581317
RQ28 est_ossl_util.h 0.3035773332
RQ28 est_server.h 0.2949193998
RQ28 est_server.c 0.2513750315
RQ28 est_client.c 0.2709063829
RQ28 est_server_http.h 0.2506772643
RQ53 est_client_http.c 0.06295242435
RQ53 est_proxy.c 0.08666611703
RQ53 est_client_proxy.h 0.1993248764
RQ53 est_ossl_util.c 0.09888135815
RQ53 est.c 0.07564576237
RQ53 est_client_proxy.c 0.05727242546
RQ53 est_server_http.c 0.1076513836
RQ53 est_locl.h 0.1026854529
RQ53 est_ossl_util.h 0.2134539512
RQ53 est_server.h 0.1327426835
RQ53 est_server.c 0.103416674
RQ53 est_client.c 0.1325866352
RQ53 est_server_http.h 0.1802434422
RQ45 est_client_http.c 0.1520557589
RQ45 est_proxy.c 0.2202887148
RQ45 est_client_proxy.h 0.2325154983
RQ45 est_ossl_util.c 0.1681310879
RQ45 est.c 0.1607755669
RQ45 est_client_proxy.c 0.1194525299
RQ45 est_server_http.c 0.1529532963
RQ45 est_locl.h 0.2342591788
RQ45 est_ossl_util.h 0.3480139669
RQ45 est_server.h 0.2402343153
RQ45 est_server.c 0.1924701767
RQ45 est_client.c 0.2452274339
RQ45 est_server_http.h 0.2111997187
RQ7 est_client_http.c 0.1428237473
RQ7 est_proxy.c 0.2161311032
RQ7 est_client_proxy.h 0.3132446443
RQ7 est_ossl_util.c 0.1955036851
RQ7 est.c 0.1874964817
RQ7 est_client_proxy.c 0.1399812913
RQ7 est_server_http.c 0.2120504736
RQ7 est_locl.h 0.216026088
RQ7 est_ossl_util.h 0.3582506023
RQ7 est_server.h 0.2622958796
RQ7 est_server.c 0.2737385449
RQ7 est_client.c 0.2830464662
RQ7 est_server_http.h 0.2882916605
RQ37 est_client_http.c 0.09093272943
RQ37 est_proxy.c 0.1502040079
RQ37 est_client_proxy.h 0.2737961184
RQ37 est_ossl_util.c 0.185900886
RQ37 est.c 0.1253001436
RQ37 est_client_proxy.c 0.08754663423
RQ37 est_server_http.c 0.1307930654
RQ37 est_locl.h 0.1506192507
RQ37 est_ossl_util.h 0.3158570699
RQ37 est_server.h 0.1927613147
RQ37 est_server.c 0.1694471441
RQ37 est_client.c 0.2098387898
RQ37 est_server_http.h 0.2466443585
RQ6 est_client_http.c 0.1794243199
RQ6 est_proxy.c 0.2836540744
RQ6 est_client_proxy.h 0.2958078398
RQ6 est_ossl_util.c 0.1412545454
RQ6 est.c 0.161386073
RQ6 est_client_proxy.c 0.1624151095
RQ6 est_server_http.c 0.1846326434
RQ6 est_locl.h 0.2565190724
RQ6 est_ossl_util.h 0.3211038211
RQ6 est_server.h 0.3279105339
RQ6 est_server.c 0.2925587332
RQ6 est_client.c 0.3005932783
RQ6 est_server_http.h 0.2684455141
RQ52 est_client_http.c 0.04581864227
RQ52 est_proxy.c 0.05931613903
RQ52 est_client_proxy.h 0.1804877957
RQ52 est_ossl_util.c 0.08169720829
RQ52 est.c 0.05895067818
RQ52 est_client_proxy.c 0.0436694667
RQ52 est_server_http.c 0.07880521732
RQ52 est_locl.h 0.07519528813
RQ52 est_ossl_util.h 0.1876549039
RQ52 est_server.h 0.1069497411
RQ52 est_server.c 0.07827717387
RQ52 est_client.c 0.1046515546
RQ52 est_server_http.h 0.1619674108
RQ11 est_client_http.c 0.1032940995
RQ11 est_proxy.c 0.1165563069
RQ11 est_client_proxy.h 0.2177561769
RQ11 est_ossl_util.c 0.1319783441
RQ11 est.c 0.09703863752
RQ11 est_client_proxy.c 0.07538338774
RQ11 est_server_http.c 0.1129288383
RQ11 est_locl.h 0.1195698506
RQ11 est_ossl_util.h 0.2373886148
RQ11 est_server.h 0.1692226505
RQ11 est_server.c 0.137390407
RQ11 est_client.c 0.1253834767
RQ11 est_server_http.h 0.1978368673
RQ8 est_client_http.c 0.1426437443
RQ8 est_proxy.c 0.2481029639
RQ8 est_client_proxy.h 0.2968732297
RQ8 est_ossl_util.c 0.1597724967
RQ8 est.c 0.1598338283
RQ8 est_client_proxy.c 0.1375456978
RQ8 est_server_http.c 0.2092938581
RQ8 est_locl.h 0.2376637201
RQ8 est_ossl_util.h 0.3221486194
RQ8 est_server.h 0.2897663531
RQ8 est_server.c 0.2541277168
RQ8 est_client.c 0.3297709022
RQ8 est_server_http.h 0.2693876949
RQ35 est_client_http.c 0.1352113568
RQ35 est_proxy.c 0.2327583055
RQ35 est_client_proxy.h 0.278189376
RQ35 est_ossl_util.c 0.1170685015
RQ35 est.c 0.1328945303
RQ35 est_client_proxy.c 0.1465284184
RQ35 est_server_http.c 0.1464855218
RQ35 est_locl.h 0.2341799184
RQ35 est_ossl_util.h 0.2937165595
RQ35 est_server.h 0.2841169257
RQ35 est_server.c 0.241433312
RQ35 est_client.c 0.2472421731
RQ35 est_server_http.h 0.250632695
RQ18 est_client_http.c 0.1342836916
RQ18 est_proxy.c 0.2455035335
RQ18 est_client_proxy.h 0.270717885
RQ18 est_ossl_util.c 0.1445819348
RQ18 est.c 0.1252214033
RQ18 est_client_proxy.c 0.1295544381
RQ18 est_server_http.c 0.1870753007
RQ18 est_locl.h 0.2111719269
RQ18 est_ossl_util.h 0.2995088043
RQ18 est_server.h 0.2725537133
RQ18 est_server.c 0.2323263707
RQ18 est_client.c 0.3030322151
RQ18 est_server_http.h 0.2426520394
RQ19 est_client_http.c 0.06219425454
RQ19 est_proxy.c 0.06827955863
RQ19 est_client_proxy.h 0.2255874712
RQ19 est_ossl_util.c 0.09509656792
RQ19 est.c 0.06743580857
RQ19 est_client_proxy.c 0.05984568572
RQ19 est_server_http.c 0.07905693508
RQ19 est_locl.h 0.1044380727
RQ19 est_ossl_util.h 0.2331905959
RQ19 est_server.h 0.1376976743
RQ19 est_server.c 0.0881253357
RQ19 est_client.c 0.08177446694
RQ19 est_server_http.h 0.2021401543
RQ27 est_client_http.c 0.1121117744
RQ27 est_proxy.c 0.1821280963
RQ27 est_client_proxy.h 0.2514559696
RQ27 est_ossl_util.c 0.1415257006
RQ27 est.c 0.1207736053
RQ27 est_client_proxy.c 0.09089825079
RQ27 est_server_http.c 0.1316956598
RQ27 est_locl.h 0.1816309492
RQ27 est_ossl_util.h 0.2707291691
RQ27 est_server.h 0.2257098067
RQ27 est_server.c 0.1656903444
RQ27 est_client.c 0.2244041177
RQ27 est_server_http.h 0.2277038731
RQ36 est_client_http.c 0.0935060661
RQ36 est_proxy.c 0.136608618
RQ36 est_client_proxy.h 0.2405963035
RQ36 est_ossl_util.c 0.1027996184
RQ36 est.c 0.09129281256
RQ36 est_client_proxy.c 0.07519697083
RQ36 est_server_http.c 0.1038596722
RQ36 est_locl.h 0.1505350185
RQ36 est_ossl_util.h 0.2564962601
RQ36 est_server.h 0.1993913858
RQ36 est_server.c 0.1439914382
RQ36 est_client.c 0.1698773153
RQ36 est_server_http.h 0.2152079359
RQ10 est_client_http.c 0.2026307676
RQ10 est_proxy.c 0.3348575141
RQ10 est_client_proxy.h 0.3207532442
RQ10 est_ossl_util.c 0.1887872476
RQ10 est.c 0.221998983
RQ10 est_client_proxy.c 0.1763800056
RQ10 est_server_http.c 0.2323032698
RQ10 est_locl.h 0.3215000799
RQ10 est_ossl_util.h 0.3686886402
RQ10 est_server.h 0.3726684508
RQ10 est_server.c 0.3245274519
RQ10 est_client.c 0.3588717638
RQ10 est_server_http.h 0.2956106977
RQ42 est_client_http.c 0.1332948218
RQ42 est_proxy.c 0.1930683104
RQ42 est_client_proxy.h 0.2384048411
RQ42 est_ossl_util.c 0.1001979189
RQ42 est.c 0.1206685878
RQ42 est_client_proxy.c 0.1086379201
RQ42 est_server_http.c 0.1198084381
RQ42 est_locl.h 0.1734437704
RQ42 est_ossl_util.h 0.2485484229
RQ42 est_server.h 0.2368089563
RQ42 est_server.c 0.2160184406
RQ42 est_client.c 0.19801667
RQ42 est_server_http.h 0.2226862858
RQ9 est_client_http.c 0.1475604903
RQ9 est_proxy.c 0.2533596745
RQ9 est_client_proxy.h 0.2943047854
RQ9 est_ossl_util.c 0.1411340965
RQ9 est.c 0.1522039029
RQ9 est_client_proxy.c 0.1532511234
RQ9 est_server_http.c 0.1696872717
RQ9 est_locl.h 0.251366698
RQ9 est_ossl_util.h 0.3157610542
RQ9 est_server.h 0.3017790578
RQ9 est_server.c 0.2583577555
RQ9 est_client.c 0.2877203953
RQ9 est_server_http.h 0.2662621609
RQ13 est_client_http.c 0.08253466632
RQ13 est_proxy.c 0.1433369685
RQ13 est_client_proxy.h 0.2371850739
RQ13 est_ossl_util.c 0.08531645753
RQ13 est.c 0.08449408938
RQ13 est_client_proxy.c 0.1015646108
RQ13 est_server_http.c 0.1128664077
RQ13 est_locl.h 0.1604530602
RQ13 est_ossl_util.h 0.2421871475
RQ13 est_server.h 0.1984659671
RQ13 est_server.c 0.1722473326
RQ13 est_client.c 0.1371422789
RQ13 est_server_http.h 0.2118717738
RQ56 est_client_http.c 0.1255276455
RQ56 est_proxy.c 0.1958145699
RQ56 est_client_proxy.h 0.2894824836
RQ56 est_ossl_util.c 0.1440507599
RQ56 est.c 0.1624090259
RQ56 est_client_proxy.c 0.1542569544
RQ56 est_server_http.c 0.1738856174
RQ56 est_locl.h 0.1967019264
RQ56 est_ossl_util.h 0.2676480129
RQ56 est_server.h 0.2255470459
RQ56 est_server.c 0.2158994559
RQ56 est_client.c 0.2357074843
RQ56 est_server_http.h 0.2247189194
RQ26 est_client_http.c 0.1927797939
RQ26 est_proxy.c 0.3485291383
RQ26 est_client_proxy.h 0.2737970641
RQ26 est_ossl_util.c 0.1382094312
RQ26 est.c 0.152062373
RQ26 est_client_proxy.c 0.1497574549
RQ26 est_server_http.c 0.2237835788
RQ26 est_locl.h 0.2945238014
RQ26 est_ossl_util.h 0.2975199534
RQ26 est_server.h 0.3713201911
RQ26 est_server.c 0.3275973405
RQ26 est_client.c 0.304042678
RQ26 est_server_http.h 0.2485389965
RQ39 est_client_http.c 0.1998736162
RQ39 est_proxy.c 0.2787709965
RQ39 est_client_proxy.h 0.3195881185
RQ39 est_ossl_util.c 0.1807335477
RQ39 est.c 0.1841261834
RQ39 est_client_proxy.c 0.1598816928
RQ39 est_server_http.c 0.206581494
RQ39 est_locl.h 0.2531126145
RQ39 est_ossl_util.h 0.3607065629
RQ39 est_server.h 0.3320752456
RQ39 est_server.c 0.3076611325
RQ39 est_client.c 0.2941571495
RQ39 est_server_http.h 0.2930703379
RQ25 est_client_http.c 0.1031170059
RQ25 est_proxy.c 0.15309547
RQ25 est_client_proxy.h 0.2562310967
RQ25 est_ossl_util.c 0.1255004796
RQ25 est.c 0.1580566802
RQ25 est_client_proxy.c 0.08277965774
RQ25 est_server_http.c 0.1423534413
RQ25 est_locl.h 0.2167639457
RQ25 est_ossl_util.h 0.2903868571
RQ25 est_server.h 0.2448034764
RQ25 est_server.c 0.1943684902
RQ25 est_client.c 0.1934891106
RQ25 est_server_http.h 0.2407535629
RQ55 est_client_http.c 0.1
RQ55 est_proxy.c 0.1
RQ55 est_client_proxy.h 0.1189865676
RQ55 est_ossl_util.c 0.1
RQ55 est.c 0.1
RQ55 est_client_proxy.c 0.1
RQ55 est_server_http.c 0.1
RQ55 est_locl.h 0.0795677055
RQ55 est_ossl_util.h 0.1386858311
RQ55 est_server.h 0.09381253043
RQ55 est_server.c 0.1000881033
RQ55 est_client.c 0.1
RQ55 est_server_http.h 0.1073222683
RQ38 est_client_http.c 0.152639268
RQ38 est_proxy.c 0.1567747803
RQ38 est_client_proxy.h 0.2412125413
RQ38 est_ossl_util.c 0.1081371462
RQ38 est.c 0.1195509381
RQ38 est_client_proxy.c 0.09646830352
RQ38 est_server_http.c 0.1825694402
RQ38 est_locl.h 0.1542384928
RQ38 est_ossl_util.h 0.2485136682
RQ38 est_server.h 0.2159873685
RQ38 est_server.c 0.1681438294
RQ38 est_client.c 0.1815481872
RQ38 est_server_http.h 0.2159582338
RQ1 est_client_http.c 0.06138324658
RQ1 est_proxy.c 0.06922246761
RQ1 est_client_proxy.h 0.223428654
RQ1 est_ossl_util.c 0.09392768172
RQ1 est.c 0.06840691919
RQ1 est_client_proxy.c 0.08458065265
RQ1 est_server_http.c 0.07299827174
RQ1 est_locl.h 0.09757969974
RQ1 est_ossl_util.h 0.2306609985
RQ1 est_server.h 0.1354985429
RQ1 est_server.c 0.09513305992
RQ1 est_client.c 0.08320222299
RQ1 est_server_http.h 0.2001399271
RQ15 est_client_http.c 0.08585708819
RQ15 est_proxy.c 0.1903491124
RQ15 est_client_proxy.h 0.2247165022
RQ15 est_ossl_util.c 0.145792828
RQ15 est.c 0.1415918212
RQ15 est_client_proxy.c 0.1103356624
RQ15 est_server_http.c 0.1313157321
RQ15 est_locl.h 0.1832156268
RQ15 est_ossl_util.h 0.2398052928
RQ15 est_server.h 0.2312081266
RQ15 est_server.c 0.1958377298
RQ15 est_client.c 0.2104831631
RQ15 est_server_http.h 0.2030188338
RQ40 est_client_http.c 0.05275821606
RQ40 est_proxy.c 0.06983413131
RQ40 est_client_proxy.h 0.1602380154
RQ40 est_ossl_util.c 0.08084666291
RQ40 est.c 0.06255626218
RQ40 est_client_proxy.c 0.04131672279
RQ40 est_server_http.c 0.08841409572
RQ40 est_locl.h 0.08789575624
RQ40 est_ossl_util.h 0.172392282
RQ40 est_server.h 0.1085861839
RQ40 est_server.c 0.07575258589
RQ40 est_client.c 0.09250839663
RQ40 est_server_http.h 0.1450740819
RQ31 est_client_http.c 0.2075479662
RQ31 est_proxy.c 0.2954263421
RQ31 est_client_proxy.h 0.3234604418
RQ31 est_ossl_util.c 0.1856451727
RQ31 est.c 0.1956515225
RQ31 est_client_proxy.c 0.1689076813
RQ31 est_server_http.c 0.2185953426
RQ31 est_locl.h 0.2627699262
RQ31 est_ossl_util.h 0.3669159014
RQ31 est_server.h 0.343374094
RQ31 est_server.c 0.3262260027
RQ31 est_client.c 0.317709187
RQ31 est_server_http.h 0.2970273148
RQ58 est_client_http.c 0.03943821254
RQ58 est_proxy.c 0.05209144136
RQ58 est_client_proxy.h 0.1401892421
RQ58 est_ossl_util.c 0.05428954319
RQ58 est.c 0.04440985155
RQ58 est_client_proxy.c 0.04113178594
RQ58 est_server_http.c 0.05972909092
RQ58 est_locl.h 0.07537876371
RQ58 est_ossl_util.h 0.1467052275
RQ58 est_server.h 0.09086812511
RQ58 est_server.c 0.06232065407
RQ58 est_client.c 0.05856097447
RQ58 est_server_http.h 0.4616159545
RQ2 est_client_http.c 0.08636764018
RQ2 est_proxy.c 0.1183021868
RQ2 est_client_proxy.h 0.2486361191
RQ2 est_ossl_util.c 0.1019793888
RQ2 est.c 0.07407208046
RQ2 est_client_proxy.c 0.09301700601
RQ2 est_server_http.c 0.08527632571
RQ2 est_locl.h 0.1270174375
RQ2 est_ossl_util.h 0.2548354185
RQ2 est_server.h 0.2199983633
RQ2 est_server.c 0.1273076354
RQ2 est_client.c 0.1395902654
RQ2 est_server_http.h 0.2223117201
RQ24 est_client_http.c 0.07524327873
RQ24 est_proxy.c 0.09276628242
RQ24 est_client_proxy.h 0.2102022969
RQ24 est_ossl_util.c 0.1258103483
RQ24 est.c 0.1074515403
RQ24 est_client_proxy.c 0.05582076594
RQ24 est_server_http.c 0.09710283682
RQ24 est_locl.h 0.1106584772
RQ24 est_ossl_util.h 0.2273397028
RQ24 est_server.h 0.1452543596
RQ24 est_server.c 0.1315080416
RQ24 est_client.c 0.1368088495
RQ24 est_server_http.h 0.1905734989
RQ41 est_client_http.c 0.05510103775
RQ41 est_proxy.c 0.07358555223
RQ41 est_client_proxy.h 0.1745358316
RQ41 est_ossl_util.c 0.0767173363
RQ41 est.c 0.06018484039
RQ41 est_client_proxy.c 0.06398898549
RQ41 est_server_http.c 0.08347992616
RQ41 est_locl.h 0.1031518766
RQ41 est_ossl_util.h 0.1836884996
RQ41 est_server.h 0.1211953261
RQ41 est_server.c 0.07269722998
RQ41 est_client.c 0.07911067828
RQ41 est_server_http.h 0.1571167352
RQ22 est_client_http.c 0.0839429459
RQ22 est_proxy.c 0.1401414796
RQ22 est_client_proxy.h 0.2440484163
RQ22 est_ossl_util.c 0.100792566
RQ22 est.c 0.09178186559
RQ22 est_client_proxy.c 0.1005801042
RQ22 est_server_http.c 0.09784579058
RQ22 est_locl.h 0.1462302429
RQ22 est_ossl_util.h 0.2543624314
RQ22 est_server.h 0.1909283306
RQ22 est_server.c 0.1626893786
RQ22 est_client.c 0.1528607938
RQ22 est_server_http.h 0.2191434169
RQ57 est_client_http.c 0.08043932152
RQ57 est_proxy.c 0.1475203508
RQ57 est_client_proxy.h 0.1836035499
RQ57 est_ossl_util.c 0.1002455246
RQ57 est.c 0.1069700786
RQ57 est_client_proxy.c 0.0711089252
RQ57 est_server_http.c 0.1448936304
RQ57 est_locl.h 0.1408791296
RQ57 est_ossl_util.h 0.191159864
RQ57 est_server.h 0.1680178049
RQ57 est_server.c 0.156899462
RQ57 est_client.c 0.1915249453
RQ57 est_server_http.h 0.1648220595
RQ32 est_client_http.c 0.1590918679
RQ32 est_proxy.c 0.1800100715
RQ32 est_client_proxy.h 0.277725076
RQ32 est_ossl_util.c 0.1574344968
RQ32 est.c 0.154869331
RQ32 est_client_proxy.c 0.1072078077
RQ32 est_server_http.c 0.1570750188
RQ32 est_locl.h 0.1707421211
RQ32 est_ossl_util.h 0.2901570558
RQ32 est_server.h 0.2117559107
RQ32 est_server.c 0.2116694774
RQ32 est_client.c 0.1966081667
RQ32 est_server_http.h 0.2495367682
RQ14 est_client_http.c 0.144441811
RQ14 est_proxy.c 0.1797056037
RQ14 est_client_proxy.h 0.3727085298
RQ14 est_ossl_util.c 0.1147155038
RQ14 est.c 0.1343975388
RQ14 est_client_proxy.c 0.2347776357
RQ14 est_server_http.c 0.1680659033
RQ14 est_locl.h 0.1833290553
RQ14 est_ossl_util.h 0.2742931569
RQ14 est_server.h 0.2312941642
RQ14 est_server.c 0.1787572544
RQ14 est_client.c 0.1914495861
RQ14 est_server_http.h 0.2346653456
RQ49 est_client_http.c 0.06452323604
RQ49 est_proxy.c 0.1491731801
RQ49 est_client_proxy.h 0.210832209
RQ49 est_ossl_util.c 0.1140940223
RQ49 est.c 0.1050750199
RQ49 est_client_proxy.c 0.05884086292
RQ49 est_server_http.c 0.1076252552
RQ49 est_locl.h 0.1582237495
RQ49 est_ossl_util.h 0.2159170573
RQ49 est_server.h 0.1980707945
RQ49 est_server.c 0.1417845679
RQ49 est_client.c 0.1724488055
RQ49 est_server_http.h 0.1884723604
RQ23 est_client_http.c 0.07832334205
RQ23 est_proxy.c 0.1109021591
RQ23 est_client_proxy.h 0.2531255045
RQ23 est_ossl_util.c 0.1271703876
RQ23 est.c 0.1082042783
RQ23 est_client_proxy.c 0.09916186133
RQ23 est_server_http.c 0.1157953537
RQ23 est_locl.h 0.126677943
RQ23 est_ossl_util.h 0.2712578141
RQ23 est_server.h 0.1690182344
RQ23 est_server.c 0.1813543321
RQ23 est_client.c 0.1601480173
RQ23 est_server_http.h 0.2289355767
RQ47 est_client_http.c 0.1705137346
RQ47 est_proxy.c 0.2695224396
RQ47 est_client_proxy.h 0.2934298418
RQ47 est_ossl_util.c 0.1620237826
RQ47 est.c 0.1607457068
RQ47 est_client_proxy.c 0.1413321008
RQ47 est_server_http.c 0.1778597723
RQ47 est_locl.h 0.2332893926
RQ47 est_ossl_util.h 0.3157914642
RQ47 est_server.h 0.323110394
RQ47 est_server.c 0.2896287321
RQ47 est_client.c 0.2813175719
RQ47 est_server_http.h 0.2656845469
RQ34 est_client_http.c 0.08198881676
RQ34 est_proxy.c 0.1596132399
RQ34 est_client_proxy.h 0.237063009
RQ34 est_ossl_util.c 0.1683052548
RQ34 est.c 0.1502224025
RQ34 est_client_proxy.c 0.0688872111
RQ34 est_server_http.c 0.1457937593
RQ34 est_locl.h 0.1715552616
RQ34 est_ossl_util.h 0.2865973021
RQ34 est_server.h 0.2017621845
RQ34 est_server.c 0.1740799199
RQ34 est_client.c 0.1865918853
RQ34 est_server_http.h 0.2117277216
RQ17 est_client_http.c 0.114706062
RQ17 est_proxy.c 0.1505752028
RQ17 est_client_proxy.h 0.229328353
RQ17 est_ossl_util.c 0.1112516319
RQ17 est.c 0.09658561495
RQ17 est_client_proxy.c 0.0899765452
RQ17 est_server_http.c 0.1269947564
RQ17 est_locl.h 0.1498757859
RQ17 est_ossl_util.h 0.2387510706
RQ17 est_server.h 0.2086338736
RQ17 est_server.c 0.1643962088
RQ17 est_client.c 0.1512980957
RQ17 est_server_http.h 0.2058660961
RQ20 est_client_http.c 0.079881339
RQ20 est_proxy.c 0.1543743486
RQ20 est_client_proxy.h 0.2353978442
RQ20 est_ossl_util.c 0.0970532206
RQ20 est.c 0.09015005032
RQ20 est_client_proxy.c 0.0985861006
RQ20 est_server_http.c 0.1204288765
RQ20 est_locl.h 0.1654971193
RQ20 est_ossl_util.h 0.2449340694
RQ20 est_server.h 0.2035554143
RQ20 est_server.c 0.1851466884
RQ20 est_client.c 0.1436702136
RQ20 est_server_http.h 0.2112846281
RQ48 est_client_http.c 0.1601620413
RQ48 est_proxy.c 0.2512772182
RQ48 est_client_proxy.h 0.2973337622
RQ48 est_ossl_util.c 0.1637347326
RQ48 est.c 0.1798660275
RQ48 est_client_proxy.c 0.1546366287
RQ48 est_server_http.c 0.1860339307
RQ48 est_locl.h 0.2499601868
RQ48 est_ossl_util.h 0.3358437038
RQ48 est_server.h 0.2975394146
RQ48 est_server.c 0.2670190409
RQ48 est_client.c 0.2821790545
RQ48 est_server_http.h 0.2727187781
RQ4 est_client_http.c 0.1145275563
RQ4 est_proxy.c 0.1850035599
RQ4 est_client_proxy.h 0.2819122693
RQ4 est_ossl_util.c 0.1160533593
RQ4 est.c 0.1185633019
RQ4 est_client_proxy.c 0.1365077555
RQ4 est_server_http.c 0.1247784031
RQ4 est_locl.h 0.1899546148
RQ4 est_ossl_util.h 0.2948919387
RQ4 est_server.h 0.2421185462
RQ4 est_server.c 0.2143130422
RQ4 est_client.c 0.2029065253
RQ4 est_server_http.h 0.2533785084
RQ50 est_client_http.c 0.06443258062
RQ50 est_proxy.c 0.1246541439
RQ50 est_client_proxy.h 0.2327201611
RQ50 est_ossl_util.c 0.124998238
RQ50 est.c 0.1080204626
RQ50 est_client_proxy.c 0.05965331924
RQ50 est_server_http.c 0.1107343626
RQ50 est_locl.h 0.1455069742
RQ50 est_ossl_util.h 0.243823049
RQ50 est_server.h 0.1844369439
RQ50 est_server.c 0.1392448176
RQ50 est_client.c 0.1432058894
RQ50 est_server_http.h 0.2092510632
RQ16 est_client_http.c 0.09555614869
RQ16 est_proxy.c 0.1546519008
RQ16 est_client_proxy.h 0.2273509276
RQ16 est_ossl_util.c 0.08994922556
RQ16 est.c 0.09895501014
RQ16 est_client_proxy.c 0.1244104362
RQ16 est_server_http.c 0.1091344625
RQ16 est_locl.h 0.1708146776
RQ16 est_ossl_util.h 0.2381335164
RQ16 est_server.h 0.2064487058
RQ16 est_server.c 0.1544268864
RQ16 est_client.c 0.1681906045
RQ16 est_server_http.h 0.2044091401
RQ46 est_client_http.c 0.0878446607
RQ46 est_proxy.c 0.1194392461
RQ46 est_client_proxy.h 0.1920925308
RQ46 est_ossl_util.c 0.09703849318
RQ46 est.c 0.08350206756
RQ46 est_client_proxy.c 0.06659390665
RQ46 est_server_http.c 0.1031028693
RQ46 est_locl.h 0.1438554197
RQ46 est_ossl_util.h 0.2448824393
RQ46 est_server.h 0.1565197715
RQ46 est_server.c 0.1073579706
RQ46 est_client.c 0.1310604367
RQ46 est_server_http.h 0.172049677
RQ29 est_client_http.c 0.1015545761
RQ29 est_proxy.c 0.154484913
RQ29 est_client_proxy.h 0.2485680381
RQ29 est_ossl_util.c 0.1305327322
RQ29 est.c 0.1012493169
RQ29 est_client_proxy.c 0.09831496172
RQ29 est_server_http.c 0.1142276419
RQ29 est_locl.h 0.1649581274
RQ29 est_ossl_util.h 0.2596114574
RQ29 est_server.h 0.2109946799
RQ29 est_server.c 0.1557420594
RQ29 est_client.c 0.2005644532
RQ29 est_server_http.h 0.2233206775
RQ33 est_client_http.c 0.1749641698
RQ33 est_proxy.c 0.2487153487
RQ33 est_client_proxy.h 0.2975175797
RQ33 est_ossl_util.c 0.1338597333
RQ33 est.c 0.1311576612
RQ33 est_client_proxy.c 0.1462581016
RQ33 est_server_http.c 0.1659152778
RQ33 est_locl.h 0.2158007554
RQ33 est_ossl_util.h 0.3179115633
RQ33 est_server.h 0.3021692324
RQ33 est_server.c 0.2668833923
RQ33 est_client.c 0.2475410512
RQ33 est_server_http.h 0.2688825899
RQ5 est_client_http.c 0.120072218
RQ5 est_proxy.c 0.1943796336
RQ5 est_client_proxy.h 0.2677867837
RQ5 est_ossl_util.c 0.1234092337
RQ5 est.c 0.1303230897
RQ5 est_client_proxy.c 0.1449271698
RQ5 est_server_http.c 0.1614501533
RQ5 est_locl.h 0.1921679168
RQ5 est_ossl_util.h 0.2891420435
RQ5 est_server.h 0.2387293628
RQ5 est_server.c 0.2262963321
RQ5 est_client.c 0.2429774343
RQ5 est_server_http.h 0.242675429
RQ21 est_client_http.c 0.07906689928
RQ21 est_proxy.c 0.1311015736
RQ21 est_client_proxy.h 0.2321531326
RQ21 est_ossl_util.c 0.1016443187
RQ21 est.c 0.09250853404
RQ21 est_client_proxy.c 0.09025640274
RQ21 est_server_http.c 0.0970773988
RQ21 est_locl.h 0.1356534414
RQ21 est_ossl_util.h 0.2447373545
RQ21 est_server.h 0.1769374801
RQ21 est_server.c 0.1529176296
RQ21 est_client.c 0.1456998843
RQ21 est_server_http.h 0.2090742302
RQ51 est_client_http.c 0.1114433109
RQ51 est_proxy.c 0.1570750722
RQ51 est_client_proxy.h 0.2769467124
RQ51 est_ossl_util.c 0.1308165532
RQ51 est.c 0.1013606112
RQ51 est_client_proxy.c 0.09795774918
RQ51 est_server_http.c 0.1390537552
RQ51 est_locl.h 0.1671460366
RQ51 est_ossl_util.h 0.3366577573
RQ51 est_server.h 0.2069057807
RQ51 est_server.c 0.165463389
RQ51 est_client.c 0.2193035373
RQ51 est_server_http.h 0.246880869
