RQ28 est_client_http.c 0.1621621663
RQ28 est_proxy.c 0.2656099681
RQ28 est_client_proxy.h 0.2749963761
RQ28 est_ossl_util.c 0.1402086117
RQ28 est.c 0.1548209422
RQ28 est_client_proxy.c 0.1170942407
RQ28 est_server_http.c 0.1811401811
RQ28 est_locl.h 0.2319581317
RQ28 est_ossl_util.h 0.3035773332
RQ28 est_server.h 0.2949193998
RQ28 est_server.c 0.2513750315
RQ28 est_client.c 0.2709063829
RQ28 est_server_http.h 0.2506772643
RQ53 est_client_http.c 0.06295242435
RQ53 est_proxy.c 0.08666611703
RQ53 est_client_proxy.h 0.1993248764
RQ53 est_ossl_util.c 0.09888135815
RQ53 est.c 0.07564576237
RQ53 est_client_proxy.c 0.05727242546
RQ53 est_server_http.c 0.1076513836
RQ53 est_locl.h 0.1026854529
RQ53 est_ossl_util.h 0.2134539512
RQ53 est_server.h 0.1327426835
RQ53 est_server.c 0.103416674
RQ53 est_client.c 0.1325866352
RQ53 est_server_http.h 0.1802434422
RQ45 est_client_http.c 0.1520557589
RQ45 est_proxy.c 0.2202887148
RQ45 est_client_proxy.h 0.2325154983
RQ45 est_ossl_util.c 0.1681310879
RQ45 est.c 0.1607755669
RQ45 est_client_proxy.c 0.1194525299
RQ45 est_server_http.c 0.1529532963
RQ45 est_locl.h 0.2342591788
RQ45 est_ossl_util.h 0.3480139669
RQ45 est_server.h 0.2402343153
RQ45 est_server.c 0.1924701767
RQ45 est_client.c 0.2452274339
RQ45 est_server_http.h 0.2111997187
RQ7 est_client_http.c 0.1428237473
RQ7 est_proxy.c 0.2161311032
RQ7 est_client_proxy.h 0.3132446443
RQ7 est_ossl_util.c 0.1955036851
RQ7 est.c 0.1874964817
RQ7 est_client_proxy.c 0.1399812913
RQ7 est_server_http.c 0.2120504736
RQ7 est_locl.h 0.216026088
RQ7 est_ossl_util.h 0.3582506023
RQ7 est_server.h 0.2622958796
RQ7 est_server.c 0.2737385449
RQ7 est_client.c 0.2830464662
RQ7 est_server_http.h 0.2882916605
RQ37 est_client_http.c 0.3
RQ37 est_proxy.c 0.3
RQ37 est_client_proxy.h 0.3
RQ37 est_ossl_util.c 0.3
RQ37 est.c 0.3
RQ37 est_client_proxy.c 0.3
RQ37 est_server_http.c 0.3
RQ37 est_locl.h 0.1506192507
RQ37 est_ossl_util.h 0.3158570699
RQ37 est_server.h 0.1927613147
RQ37 est_server.c 0.3
RQ37 est_client.c 0.3
RQ37 est_server_http.h 0.2466443585
RQ6 est_client_http.c 0.3
RQ6 est_proxy.c 0.3
RQ6 est_client_proxy.h 0.3
RQ6 est_ossl_util.c 0.3
RQ6 est.c 0.3
RQ6 est_client_proxy.c 0.3
RQ6 est_server_http.c 0.3
RQ6 est_locl.h 0.2565190724
RQ6 est_ossl_util.h 0.3211038211
RQ6 est_server.h 0.3279105339
RQ6 est_server.c 0.3
RQ6 est_client.c 0.3005932783
RQ6 est_server_http.h 0.2684455141
RQ52 est_client_http.c 0.04581864227
RQ52 est_proxy.c 0.05931613903
RQ52 est_client_proxy.h 0.1804877957
RQ52 est_ossl_util.c 0.08169720829
RQ52 est.c 0.05895067818
RQ52 est_client_proxy.c 0.0436694667
RQ52 est_server_http.c 0.07880521732
RQ52 est_locl.h 0.07519528813
RQ52 est_ossl_util.h 0.1876549039
RQ52 est_server.h 0.1069497411
RQ52 est_server.c 0.07827717387
RQ52 est_client.c 0.1046515546
RQ52 est_server_http.h 0.1619674108
RQ11 est_client_http.c 0.3
RQ11 est_proxy.c 0.3
RQ11 est_client_proxy.h 0.3
RQ11 est_ossl_util.c 0.3
RQ11 est.c 0.3
RQ11 est_client_proxy.c 0.3
RQ11 est_server_http.c 0.3
RQ11 est_locl.h 0.1195698506
RQ11 est_ossl_util.h 0.3
RQ11 est_server.h 0.3
RQ11 est_server.c 0.3
RQ11 est_client.c 0.3
RQ11 est_server_http.h 0.1978368673
RQ8 est_client_http.c 0.3
RQ8 est_proxy.c 0.3
RQ8 est_client_proxy.h 0.3
RQ8 est_ossl_util.c 0.3
RQ8 est.c 0.3
RQ8 est_client_proxy.c 0.3
RQ8 est_server_http.c 0.3
RQ8 est_locl.h 0.2376637201
RQ8 est_ossl_util.h 0.3221486194
RQ8 est_server.h 0.3
RQ8 est_server.c 0.3
RQ8 est_client.c 0.3297709022
RQ8 est_server_http.h 0.2693876949
RQ35 est_client_http.c 0.3
RQ35 est_proxy.c 0.3
RQ35 est_client_proxy.h 0.3
RQ35 est_ossl_util.c 0.3
RQ35 est.c 0.3
RQ35 est_client_proxy.c 0.3
RQ35 est_server_http.c 0.3
RQ35 est_locl.h 0.2341799184
RQ35 est_ossl_util.h 0.3
RQ35 est_server.h 0.2841169257
RQ35 est_server.c 0.3
RQ35 est_client.c 0.3
RQ35 est_server_http.h 0.250632695
RQ18 est_client_http.c 0.3
RQ18 est_proxy.c 0.3
RQ18 est_client_proxy.h 0.270717885
RQ18 est_ossl_util.c 0.3
RQ18 est.c 0.3
RQ18 est_client_proxy.c 0.3
RQ18 est_server_http.c 0.3
RQ18 est_locl.h 0.2111719269
RQ18 est_ossl_util.h 0.2995088043
RQ18 est_server.h 0.2725537133
RQ18 est_server.c 0.3
RQ18 est_client.c 0.3030322151
RQ18 est_server_http.h 0.2426520394
RQ19 est_client_http.c 0.3
RQ19 est_proxy.c 0.3
RQ19 est_client_proxy.h 0.2255874712
RQ19 est_ossl_util.c 0.3
RQ19 est.c 0.3
RQ19 est_client_proxy.c 0.3
RQ19 est_server_http.c 0.3
RQ19 est_locl.h 0.1044380727
RQ19 est_ossl_util.h 0.2331905959
RQ19 est_server.h 0.1376976743
RQ19 est_server.c 0.3
RQ19 est_client.c 0.3
RQ19 est_server_http.h 0.2021401543
RQ27 est_client_http.c 0.1121117744
RQ27 est_proxy.c 0.1821280963
RQ27 est_client_proxy.h 0.2514559696
RQ27 est_ossl_util.c 0.1415257006
RQ27 est.c 0.1207736053
RQ27 est_client_proxy.c 0.09089825079
RQ27 est_server_http.c 0.1316956598
RQ27 est_locl.h 0.1816309492
RQ27 est_ossl_util.h 0.2707291691
RQ27 est_server.h 0.2257098067
RQ27 est_server.c 0.1656903444
RQ27 est_client.c 0.2244041177
RQ27 est_server_http.h 0.2277038731
RQ36 est_client_http.c 0.3
RQ36 est_proxy.c 0.3
RQ36 est_client_proxy.h 0.3
RQ36 est_ossl_util.c 0.3
RQ36 est.c 0.3
RQ36 est_client_proxy.c 0.3
RQ36 est_server_http.c 0.3
RQ36 est_locl.h 0.1505350185
RQ36 est_ossl_util.h 0.2564962601
RQ36 est_server.h 0.1993913858
RQ36 est_server.c 0.3
RQ36 est_client.c 0.3
RQ36 est_server_http.h 0.2152079359
RQ10 est_client_http.c 0.2026307676
RQ10 est_proxy.c 0.3348575141
RQ10 est_client_proxy.h 0.3207532442
RQ10 est_ossl_util.c 0.1887872476
RQ10 est.c 0.221998983
RQ10 est_client_proxy.c 0.1763800056
RQ10 est_server_http.c 0.2323032698
RQ10 est_locl.h 0.3215000799
RQ10 est_ossl_util.h 0.3686886402
RQ10 est_server.h 0.3726684508
RQ10 est_server.c 0.3245274519
RQ10 est_client.c 0.3588717638
RQ10 est_server_http.h 0.2956106977
RQ42 est_client_http.c 0.3
RQ42 est_proxy.c 0.3
RQ42 est_client_proxy.h 0.3
RQ42 est_ossl_util.c 0.3
RQ42 est.c 0.3
RQ42 est_client_proxy.c 0.3
RQ42 est_server_http.c 0.3
RQ42 est_locl.h 0.1734437704
RQ42 est_ossl_util.h 0.3
RQ42 est_server.h 0.3
RQ42 est_server.c 0.3
RQ42 est_client.c 0.3
RQ42 est_server_http.h 0.2226862858
RQ9 est_client_http.c 0.1475604903
RQ9 est_proxy.c 0.2533596745
RQ9 est_client_proxy.h 0.2943047854
RQ9 est_ossl_util.c 0.1411340965
RQ9 est.c 0.1522039029
RQ9 est_client_proxy.c 0.1532511234
RQ9 est_server_http.c 0.1696872717
RQ9 est_locl.h 0.251366698
RQ9 est_ossl_util.h 0.3157610542
RQ9 est_server.h 0.3017790578
RQ9 est_server.c 0.2583577555
RQ9 est_client.c 0.2877203953
RQ9 est_server_http.h 0.2662621609
RQ13 est_client_http.c 0.3
RQ13 est_proxy.c 0.3
RQ13 est_client_proxy.h 0.3
RQ13 est_ossl_util.c 0.3
RQ13 est.c 0.3
RQ13 est_client_proxy.c 0.3
RQ13 est_server_http.c 0.3
RQ13 est_locl.h 0.1604530602
RQ13 est_ossl_util.h 0.3
RQ13 est_server.h 0.1984659671
RQ13 est_server.c 0.3
RQ13 est_client.c 0.3
RQ13 est_server_http.h 0.2118717738
RQ56 est_client_http.c 0.3
RQ56 est_proxy.c 0.3
RQ56 est_client_proxy.h 0.3
RQ56 est_ossl_util.c 0.3
RQ56 est.c 0.3
RQ56 est_client_proxy.c 0.3
RQ56 est_server_http.c 0.3
RQ56 est_locl.h 0.1967019264
RQ56 est_ossl_util.h 0.3
RQ56 est_server.h 0.2255470459
RQ56 est_server.c 0.3
RQ56 est_client.c 0.3
RQ56 est_server_http.h 0.2247189194
RQ26 est_client_http.c 0.3
RQ26 est_proxy.c 0.3485291383
RQ26 est_client_proxy.h 0.3
RQ26 est_ossl_util.c 0.3
RQ26 est.c 0.3
RQ26 est_client_proxy.c 0.3
RQ26 est_server_http.c 0.3
RQ26 est_locl.h 0.2945238014
RQ26 est_ossl_util.h 0.3
RQ26 est_server.h 0.3713201911
RQ26 est_server.c 0.3275973405
RQ26 est_client.c 0.304042678
RQ26 est_server_http.h 0.2485389965
RQ39 est_client_http.c 0.1998736162
RQ39 est_proxy.c 0.2787709965
RQ39 est_client_proxy.h 0.3195881185
RQ39 est_ossl_util.c 0.1807335477
RQ39 est.c 0.1841261834
RQ39 est_client_proxy.c 0.1598816928
RQ39 est_server_http.c 0.206581494
RQ39 est_locl.h 0.2531126145
RQ39 est_ossl_util.h 0.3607065629
RQ39 est_server.h 0.3320752456
RQ39 est_server.c 0.3076611325
RQ39 est_client.c 0.2941571495
RQ39 est_server_http.h 0.2930703379
RQ25 est_client_http.c 0.3
RQ25 est_proxy.c 0.3
RQ25 est_client_proxy.h 0.3
RQ25 est_ossl_util.c 0.3
RQ25 est.c 0.3
RQ25 est_client_proxy.c 0.3
RQ25 est_server_http.c 0.3
RQ25 est_locl.h 0.2167639457
RQ25 est_ossl_util.h 0.3
RQ25 est_server.h 0.3
RQ25 est_server.c 0.3
RQ25 est_client.c 0.3
RQ25 est_server_http.h 0.2407535629
RQ55 est_client_http.c 0.04301746215
RQ55 est_proxy.c 0.3
RQ55 est_client_proxy.h 0.3
RQ55 est_ossl_util.c 0.3
RQ55 est.c 0.3
RQ55 est_client_proxy.c 0.04424493348
RQ55 est_server_http.c 0.3
RQ55 est_locl.h 0.0795677055
RQ55 est_ossl_util.h 0.3
RQ55 est_server.h 0.3
RQ55 est_server.c 0.3
RQ55 est_client.c 0.3
RQ55 est_server_http.h 0.1073222683
RQ38 est_client_http.c 0.3
RQ38 est_proxy.c 0.3
RQ38 est_client_proxy.h 0.2412125413
RQ38 est_ossl_util.c 0.3
RQ38 est.c 0.3
RQ38 est_client_proxy.c 0.3
RQ38 est_server_http.c 0.3
RQ38 est_locl.h 0.1542384928
RQ38 est_ossl_util.h 0.2485136682
RQ38 est_server.h 0.2159873685
RQ38 est_server.c 0.3
RQ38 est_client.c 0.3
RQ38 est_server_http.h 0.2159582338
RQ1 est_client_http.c 0.06138324658
RQ1 est_proxy.c 0.06922246761
RQ1 est_client_proxy.h 0.223428654
RQ1 est_ossl_util.c 0.09392768172
RQ1 est.c 0.06840691919
RQ1 est_client_proxy.c 0.08458065265
RQ1 est_server_http.c 0.07299827174
RQ1 est_locl.h 0.09757969974
RQ1 est_ossl_util.h 0.2306609985
RQ1 est_server.h 0.1354985429
RQ1 est_server.c 0.09513305992
RQ1 est_client.c 0.08320222299
RQ1 est_server_http.h 0.2001399271
RQ15 est_client_http.c 0.3
RQ15 est_proxy.c 0.3
RQ15 est_client_proxy.h 0.3
RQ15 est_ossl_util.c 0.3
RQ15 est.c 0.3
RQ15 est_client_proxy.c 0.3
RQ15 est_server_http.c 0.3
RQ15 est_locl.h 0.1832156268
RQ15 est_ossl_util.h 0.3
RQ15 est_server.h 0.2312081266
RQ15 est_server.c 0.3
RQ15 est_client.c 0.3
RQ15 est_server_http.h 0.2030188338
RQ40 est_client_http.c 0.3
RQ40 est_proxy.c 0.3
RQ40 est_client_proxy.h 0.3
RQ40 est_ossl_util.c 0.3
RQ40 est.c 0.3
RQ40 est_client_proxy.c 0.3
RQ40 est_server_http.c 0.3
RQ40 est_locl.h 0.08789575624
RQ40 est_ossl_util.h 0.3
RQ40 est_server.h 0.3
RQ40 est_server.c 0.3
RQ40 est_client.c 0.3
RQ40 est_server_http.h 0.1450740819
RQ31 est_client_http.c 0.3
RQ31 est_proxy.c 0.3
RQ31 est_client_proxy.h 0.3234604418
RQ31 est_ossl_util.c 0.3
RQ31 est.c 0.3
RQ31 est_client_proxy.c 0.3
RQ31 est_server_http.c 0.3
RQ31 est_locl.h 0.2627699262
RQ31 est_ossl_util.h 0.3669159014
RQ31 est_server.h 0.343374094
RQ31 est_server.c 0.3262260027
RQ31 est_client.c 0.317709187
RQ31 est_server_http.h 0.2970273148
RQ58 est_client_http.c 0.03943821254
RQ58 est_proxy.c 0.05209144136
RQ58 est_client_proxy.h 0.1401892421
RQ58 est_ossl_util.c 0.05428954319
RQ58 est.c 0.04440985155
RQ58 est_client_proxy.c 0.04113178594
RQ58 est_server_http.c 0.05972909092
RQ58 est_locl.h 0.07537876371
RQ58 est_ossl_util.h 0.1467052275
RQ58 est_server.h 0.09086812511
RQ58 est_server.c 0.06232065407
RQ58 est_client.c 0.05856097447
RQ58 est_server_http.h 0.4616159545
RQ2 est_client_http.c 0.08636764018
RQ2 est_proxy.c 0.1183021868
RQ2 est_client_proxy.h 0.2486361191
RQ2 est_ossl_util.c 0.1019793888
RQ2 est.c 0.07407208046
RQ2 est_client_proxy.c 0.09301700601
RQ2 est_server_http.c 0.08527632571
RQ2 est_locl.h 0.1270174375
RQ2 est_ossl_util.h 0.2548354185
RQ2 est_server.h 0.2199983633
RQ2 est_server.c 0.1273076354
RQ2 est_client.c 0.1395902654
RQ2 est_server_http.h 0.2223117201
RQ24 est_client_http.c 0.3
RQ24 est_proxy.c 0.3
RQ24 est_client_proxy.h 0.3
RQ24 est_ossl_util.c 0.3
RQ24 est.c 0.3
RQ24 est_client_proxy.c 0.3
RQ24 est_server_http.c 0.3
RQ24 est_locl.h 0.1106584772
RQ24 est_ossl_util.h 0.3
RQ24 est_server.h 0.3
RQ24 est_server.c 0.3
RQ24 est_client.c 0.3
RQ24 est_server_http.h 0.1905734989
RQ41 est_client_http.c 0.3
RQ41 est_proxy.c 0.3
RQ41 est_client_proxy.h 0.3
RQ41 est_ossl_util.c 0.3
RQ41 est.c 0.3
RQ41 est_client_proxy.c 0.3
RQ41 est_server_http.c 0.3
RQ41 est_locl.h 0.1031518766
RQ41 est_ossl_util.h 0.3
RQ41 est_server.h 0.3
RQ41 est_server.c 0.3
RQ41 est_client.c 0.3
RQ41 est_server_http.h 0.1571167352
RQ22 est_client_http.c 0.3
RQ22 est_proxy.c 0.3
RQ22 est_client_proxy.h 0.3
RQ22 est_ossl_util.c 0.3
RQ22 est.c 0.3
RQ22 est_client_proxy.c 0.3
RQ22 est_server_http.c 0.3
RQ22 est_locl.h 0.1462302429
RQ22 est_ossl_util.h 0.3
RQ22 est_server.h 0.3
RQ22 est_server.c 0.3
RQ22 est_client.c 0.3
RQ22 est_server_http.h 0.2191434169
RQ57 est_client_http.c 0.3
RQ57 est_proxy.c 0.3
RQ57 est_client_proxy.h 0.3
RQ57 est_ossl_util.c 0.3
RQ57 est.c 0.3
RQ57 est_client_proxy.c 0.3
RQ57 est_server_http.c 0.3
RQ57 est_locl.h 0.1408791296
RQ57 est_ossl_util.h 0.3
RQ57 est_server.h 0.1680178049
RQ57 est_server.c 0.3
RQ57 est_client.c 0.3
RQ57 est_server_http.h 0.1648220595
RQ32 est_client_http.c 0.3
RQ32 est_proxy.c 0.3
RQ32 est_client_proxy.h 0.3
RQ32 est_ossl_util.c 0.3
RQ32 est.c 0.3
RQ32 est_client_proxy.c 0.3
RQ32 est_server_http.c 0.3
RQ32 est_locl.h 0.1707421211
RQ32 est_ossl_util.h 0.3
RQ32 est_server.h 0.3
RQ32 est_server.c 0.3
RQ32 est_client.c 0.3
RQ32 est_server_http.h 0.2495367682
RQ14 est_client_http.c 0.3
RQ14 est_proxy.c 0.3
RQ14 est_client_proxy.h 0.3727085298
RQ14 est_ossl_util.c 0.3
RQ14 est.c 0.3
RQ14 est_client_proxy.c 0.3
RQ14 est_server_http.c 0.3
RQ14 est_locl.h 0.1833290553
RQ14 est_ossl_util.h 0.2742931569
RQ14 est_server.h 0.2312941642
RQ14 est_server.c 0.3
RQ14 est_client.c 0.3
RQ14 est_server_http.h 0.2346653456
RQ49 est_client_http.c 0.3
RQ49 est_proxy.c 0.3
RQ49 est_client_proxy.h 0.3
RQ49 est_ossl_util.c 0.3
RQ49 est.c 0.3
RQ49 est_client_proxy.c 0.3
RQ49 est_server_http.c 0.3
RQ49 est_locl.h 0.1582237495
RQ49 est_ossl_util.h 0.3
RQ49 est_server.h 0.3
RQ49 est_server.c 0.3
RQ49 est_client.c 0.3
RQ49 est_server_http.h 0.1884723604
RQ23 est_client_http.c 0.3
RQ23 est_proxy.c 0.3
RQ23 est_client_proxy.h 0.3
RQ23 est_ossl_util.c 0.3
RQ23 est.c 0.3
RQ23 est_client_proxy.c 0.3
RQ23 est_server_http.c 0.3
RQ23 est_locl.h 0.126677943
RQ23 est_ossl_util.h 0.3
RQ23 est_server.h 0.3
RQ23 est_server.c 0.3
RQ23 est_client.c 0.3
RQ23 est_server_http.h 0.2289355767
RQ47 est_client_http.c 0.3
RQ47 est_proxy.c 0.3
RQ47 est_client_proxy.h 0.3
RQ47 est_ossl_util.c 0.3
RQ47 est.c 0.3
RQ47 est_client_proxy.c 0.3
RQ47 est_server_http.c 0.3
RQ47 est_locl.h 0.2332893926
RQ47 est_ossl_util.h 0.3157914642
RQ47 est_server.h 0.323110394
RQ47 est_server.c 0.3
RQ47 est_client.c 0.3
RQ47 est_server_http.h 0.2656845469
RQ34 est_client_http.c 0.3
RQ34 est_proxy.c 0.3
RQ34 est_client_proxy.h 0.3
RQ34 est_ossl_util.c 0.3
RQ34 est.c 0.3
RQ34 est_client_proxy.c 0.3
RQ34 est_server_http.c 0.3
RQ34 est_locl.h 0.1715552616
RQ34 est_ossl_util.h 0.3
RQ34 est_server.h 0.2017621845
RQ34 est_server.c 0.3
RQ34 est_client.c 0.3
RQ34 est_server_http.h 0.2117277216
RQ17 est_client_http.c 0.114706062
RQ17 est_proxy.c 0.1505752028
RQ17 est_client_proxy.h 0.229328353
RQ17 est_ossl_util.c 0.1112516319
RQ17 est.c 0.09658561495
RQ17 est_client_proxy.c 0.0899765452
RQ17 est_server_http.c 0.1269947564
RQ17 est_locl.h 0.1498757859
RQ17 est_ossl_util.h 0.2387510706
RQ17 est_server.h 0.2086338736
RQ17 est_server.c 0.1643962088
RQ17 est_client.c 0.1512980957
RQ17 est_server_http.h 0.2058660961
RQ20 est_client_http.c 0.3
RQ20 est_proxy.c 0.3
RQ20 est_client_proxy.h 0.3
RQ20 est_ossl_util.c 0.3
RQ20 est.c 0.3
RQ20 est_client_proxy.c 0.3
RQ20 est_server_http.c 0.3
RQ20 est_locl.h 0.1654971193
RQ20 est_ossl_util.h 0.3
RQ20 est_server.h 0.3
RQ20 est_server.c 0.3
RQ20 est_client.c 0.3
RQ20 est_server_http.h 0.2112846281
RQ48 est_client_http.c 0.3
RQ48 est_proxy.c 0.3
RQ48 est_client_proxy.h 0.3
RQ48 est_ossl_util.c 0.3
RQ48 est.c 0.3
RQ48 est_client_proxy.c 0.3
RQ48 est_server_http.c 0.3
RQ48 est_locl.h 0.2499601868
RQ48 est_ossl_util.h 0.3358437038
RQ48 est_server.h 0.3
RQ48 est_server.c 0.3
RQ48 est_client.c 0.3
RQ48 est_server_http.h 0.2727187781
RQ4 est_client_http.c 0.3
RQ4 est_proxy.c 0.3
RQ4 est_client_proxy.h 0.3
RQ4 est_ossl_util.c 0.3
RQ4 est.c 0.3
RQ4 est_client_proxy.c 0.3
RQ4 est_server_http.c 0.3
RQ4 est_locl.h 0.1899546148
RQ4 est_ossl_util.h 0.3
RQ4 est_server.h 0.2421185462
RQ4 est_server.c 0.3
RQ4 est_client.c 0.3
RQ4 est_server_http.h 0.2533785084
RQ50 est_client_http.c 0.3
RQ50 est_proxy.c 0.3
RQ50 est_client_proxy.h 0.3
RQ50 est_ossl_util.c 0.3
RQ50 est.c 0.3
RQ50 est_client_proxy.c 0.3
RQ50 est_server_http.c 0.3
RQ50 est_locl.h 0.1455069742
RQ50 est_ossl_util.h 0.3
RQ50 est_server.h 0.3
RQ50 est_server.c 0.3
RQ50 est_client.c 0.3
RQ50 est_server_http.h 0.2092510632
RQ16 est_client_http.c 0.3
RQ16 est_proxy.c 0.3
RQ16 est_client_proxy.h 0.2273509276
RQ16 est_ossl_util.c 0.3
RQ16 est.c 0.3
RQ16 est_client_proxy.c 0.3
RQ16 est_server_http.c 0.3
RQ16 est_locl.h 0.1708146776
RQ16 est_ossl_util.h 0.2381335164
RQ16 est_server.h 0.2064487058
RQ16 est_server.c 0.3
RQ16 est_client.c 0.3
RQ16 est_server_http.h 0.2044091401
RQ46 est_client_http.c 0.0878446607
RQ46 est_proxy.c 0.1194392461
RQ46 est_client_proxy.h 0.1920925308
RQ46 est_ossl_util.c 0.09703849318
RQ46 est.c 0.08350206756
RQ46 est_client_proxy.c 0.06659390665
RQ46 est_server_http.c 0.1031028693
RQ46 est_locl.h 0.1438554197
RQ46 est_ossl_util.h 0.2448824393
RQ46 est_server.h 0.1565197715
RQ46 est_server.c 0.1073579706
RQ46 est_client.c 0.1310604367
RQ46 est_server_http.h 0.172049677
RQ29 est_client_http.c 0.3
RQ29 est_proxy.c 0.3
RQ29 est_client_proxy.h 0.3
RQ29 est_ossl_util.c 0.3
RQ29 est.c 0.3
RQ29 est_client_proxy.c 0.3
RQ29 est_server_http.c 0.3
RQ29 est_locl.h 0.1649581274
RQ29 est_ossl_util.h 0.3
RQ29 est_server.h 0.3
RQ29 est_server.c 0.3
RQ29 est_client.c 0.3
RQ29 est_server_http.h 0.2233206775
RQ33 est_client_http.c 0.3
RQ33 est_proxy.c 0.3
RQ33 est_client_proxy.h 0.3
RQ33 est_ossl_util.c 0.3
RQ33 est.c 0.3
RQ33 est_client_proxy.c 0.3
RQ33 est_server_http.c 0.3
RQ33 est_locl.h 0.2158007554
RQ33 est_ossl_util.h 0.3179115633
RQ33 est_server.h 0.3021692324
RQ33 est_server.c 0.3
RQ33 est_client.c 0.3
RQ33 est_server_http.h 0.2688825899
RQ5 est_client_http.c 0.120072218
RQ5 est_proxy.c 0.1943796336
RQ5 est_client_proxy.h 0.2677867837
RQ5 est_ossl_util.c 0.1234092337
RQ5 est.c 0.1303230897
RQ5 est_client_proxy.c 0.1449271698
RQ5 est_server_http.c 0.1614501533
RQ5 est_locl.h 0.1921679168
RQ5 est_ossl_util.h 0.2891420435
RQ5 est_server.h 0.2387293628
RQ5 est_server.c 0.2262963321
RQ5 est_client.c 0.2429774343
RQ5 est_server_http.h 0.242675429
RQ21 est_client_http.c 0.07906689928
RQ21 est_proxy.c 0.1311015736
RQ21 est_client_proxy.h 0.2321531326
RQ21 est_ossl_util.c 0.1016443187
RQ21 est.c 0.09250853404
RQ21 est_client_proxy.c 0.09025640274
RQ21 est_server_http.c 0.0970773988
RQ21 est_locl.h 0.1356534414
RQ21 est_ossl_util.h 0.2447373545
RQ21 est_server.h 0.1769374801
RQ21 est_server.c 0.1529176296
RQ21 est_client.c 0.1456998843
RQ21 est_server_http.h 0.2090742302
RQ51 est_client_http.c 0.3
RQ51 est_proxy.c 0.3
RQ51 est_client_proxy.h 0.3
RQ51 est_ossl_util.c 0.3
RQ51 est.c 0.3
RQ51 est_client_proxy.c 0.3
RQ51 est_server_http.c 0.3
RQ51 est_locl.h 0.1671460366
RQ51 est_ossl_util.h 0.3366577573
RQ51 est_server.h 0.3
RQ51 est_server.c 0.3
RQ51 est_client.c 0.3
RQ51 est_server_http.h 0.246880869
