RQ11 us1005.c 0.004392362366
RQ11 us1060.c 0.002671121038
RQ11 us1159.c 0.005453888906
RQ11 us1864.c 0.003614590607
RQ11 us1883.c 0.01317926753
RQ11 us2174.c 0.007576557639
RQ11 us3496.c 0.002199888807
RQ11 us3512.c 0.005072096674
RQ11 us3612.c 0.006968221311
RQ11 us4020.c 0.003306648035
RQ11 us748.c 0.006594002913
RQ11 us893.c 0.002728763634
RQ11 us894.c 0.005001479172
RQ11 us895.c 0.001217261006
RQ11 us896.c 0.001684989862
RQ11 us897.c 0.002093627157
RQ11 us898.c 0.003322570726
RQ11 us899.c 0.00924466592
RQ11 us900.c 0.001547323319
RQ11 us901.c 0.006322597936
RQ11 us903.c 0.007295730333
RQ13 us1005.c 0.02106673367
RQ13 us1060.c 0.01117827337
RQ13 us1159.c 0.01938581382
RQ13 us1864.c 0.01666355929
RQ13 us1883.c 0.02840778783
RQ13 us2174.c 0.02006627546
RQ13 us3496.c 0.01644498117
RQ13 us3512.c 0.01843536046
RQ13 us3612.c 0.01705122083
RQ13 us4020.c 0.01458317574
RQ13 us748.c 0.01471094741
RQ13 us893.c 0.01354932863
RQ13 us894.c 0.01580614394
RQ13 us895.c 0.01180410166
RQ13 us896.c 0.01373610943
RQ13 us897.c 0.01926918774
RQ13 us898.c 0.01779810243
RQ13 us899.c 0.01937541414
RQ13 us900.c 0.01288553551
RQ13 us901.c 0.0178877835
RQ13 us903.c 0.01575998144
RQ14 us1005.c 0.01546751619
RQ14 us1060.c 0.01373198868
RQ14 us1159.c 0.02242625103
RQ14 us1864.c 0.01525937585
RQ14 us1883.c 0.02180420649
RQ14 us2174.c 0.01690162933
RQ14 us3496.c 0.03267187507
RQ14 us3512.c 0.04880039209
RQ14 us3612.c 0.01771305126
RQ14 us4020.c 0.01644693303
RQ14 us748.c 0.01231275414
RQ14 us893.c 0.01276838628
RQ14 us894.c 0.01462348962
RQ14 us895.c 0.01604819512
RQ14 us896.c 0.0153480479
RQ14 us897.c 0.01689639276
RQ14 us898.c 0.01481203655
RQ14 us899.c 0.01951089936
RQ14 us900.c 0.01706559094
RQ14 us901.c 0.01576170237
RQ14 us903.c 0.01239768281
RQ15 us1005.c 0.007626275435
RQ15 us1060.c 0.007886900045
RQ15 us1159.c 0.01066287864
RQ15 us1864.c 0.00925285879
RQ15 us1883.c 0.02175439236
RQ15 us2174.c 0.008734184654
RQ15 us3496.c 0.01051538752
RQ15 us3512.c 0.009718709177
RQ15 us3612.c 0.01084609841
RQ15 us4020.c 0.007815343675
RQ15 us748.c 0.006877778502
RQ15 us893.c 0.006391194672
RQ15 us894.c 0.009917696293
RQ15 us895.c 0.005000900488
RQ15 us896.c 0.005305619688
RQ15 us897.c 0.01126224275
RQ15 us898.c 0.009962783156
RQ15 us899.c 0.008426364888
RQ15 us900.c 0.005395327888
RQ15 us901.c 0.0114133494
RQ15 us903.c 0.007193423706
RQ16 us1005.c 0.007037777174
RQ16 us1060.c 0.003306097219
RQ16 us1159.c 0.008291002219
RQ16 us1864.c 0.006270752662
RQ16 us1883.c 0.00904407757
RQ16 us2174.c 0.003750308138
RQ16 us3496.c 0.002123565215
RQ16 us3512.c 0.003373116763
RQ16 us3612.c 0.007246748338
RQ16 us4020.c 0.002924534583
RQ16 us748.c 0.003959325024
RQ16 us893.c 0.003354064141
RQ16 us894.c 0.003598718121
RQ16 us895.c 0.005439726535
RQ16 us896.c 0.003598956803
RQ16 us897.c 0.0034289125
RQ16 us898.c 0.005731338446
RQ16 us899.c 0.005659006008
RQ16 us900.c 0.005257656583
RQ16 us901.c 0.004308265548
RQ16 us903.c 0.007379094344
RQ18 us1005.c 0.1
RQ18 us1060.c 0.1
RQ18 us1159.c 0.1
RQ18 us1864.c 0.01402770839
RQ18 us1883.c 0.1
RQ18 us2174.c 0.1
RQ18 us3496.c 0.008057313167
RQ18 us3512.c 0.007145624283
RQ18 us3612.c 0.01108595073
RQ18 us4020.c 0.006579130312
RQ18 us748.c 0.1
RQ18 us893.c 0.1
RQ18 us894.c 0.01284069108
RQ18 us895.c 0.1
RQ18 us896.c 0.1
RQ18 us897.c 0.1
RQ18 us898.c 0.1
RQ18 us899.c 0.1
RQ18 us900.c 0.1
RQ18 us901.c 0.0182862234
RQ18 us903.c 0.1
RQ19 us1005.c 0.0253187988
RQ19 us1060.c 0.01696202331
RQ19 us1159.c 0.03181899039
RQ19 us1864.c 0.02126491359
RQ19 us1883.c 0.02846933651
RQ19 us2174.c 0.02240889717
RQ19 us3496.c 0.0261355881
RQ19 us3512.c 0.02610353568
RQ19 us3612.c 0.02878909648
RQ19 us4020.c 0.02598515325
RQ19 us748.c 0.02030720411
RQ19 us893.c 0.01446329839
RQ19 us894.c 0.01766316494
RQ19 us895.c 0.02174359265
RQ19 us896.c 0.02403130414
RQ19 us897.c 0.02616209919
RQ19 us898.c 0.0257332441
RQ19 us899.c 0.02336040255
RQ19 us900.c 0.02416699985
RQ19 us901.c 0.01854358767
RQ19 us903.c 0.02171303286
RQ20 us1005.c 0.009499293979
RQ20 us1060.c 0.003571091769
RQ20 us1159.c 0.006467413269
RQ20 us1864.c 0.004287635996
RQ20 us1883.c 0.009233781675
RQ20 us2174.c 0.005591052402
RQ20 us3496.c 0.005379062646
RQ20 us3512.c 0.004237350024
RQ20 us3612.c 0.006515648689
RQ20 us4020.c 0.004558367577
RQ20 us748.c 0.00414637098
RQ20 us893.c 0.003272314623
RQ20 us894.c 0.00484449227
RQ20 us895.c 8.446258939E-4
RQ20 us896.c 0.001368685306
RQ20 us897.c 0.003982548345
RQ20 us898.c 0.00525275913
RQ20 us899.c 0.007717403077
RQ20 us900.c 0.001002516991
RQ20 us901.c 0.00596435486
RQ20 us903.c 0.004919880412
RQ22 us1005.c 0.01809700522
RQ22 us1060.c 0.007238403003
RQ22 us1159.c 0.008430853767
RQ22 us1864.c 0.01047492773
RQ22 us1883.c 0.01567801017
RQ22 us2174.c 0.009815965251
RQ22 us3496.c 0.01112455455
RQ22 us3512.c 0.0101847963
RQ22 us3612.c 0.01162337197
RQ22 us4020.c 0.006506009024
RQ22 us748.c 0.009185298578
RQ22 us893.c 0.006428847043
RQ22 us894.c 0.01284801648
RQ22 us895.c 0.002981968474
RQ22 us896.c 0.005568411662
RQ22 us897.c 0.008508185376
RQ22 us898.c 0.009251891847
RQ22 us899.c 0.01231451043
RQ22 us900.c 0.003474631108
RQ22 us901.c 0.01647168142
RQ22 us903.c 0.01006699763
RQ23 us1005.c 0.01521122595
RQ23 us1060.c 0.02390719513
RQ23 us1159.c 0.01017225868
RQ23 us1864.c 0.008736893385
RQ23 us1883.c 0.01320849465
RQ23 us2174.c 0.008771726196
RQ23 us3496.c 0.01048287254
RQ23 us3512.c 0.01040280391
RQ23 us3612.c 0.01470677179
RQ23 us4020.c 0.008680678307
RQ23 us748.c 0.008383596779
RQ23 us893.c 0.006265475053
RQ23 us894.c 0.009677376858
RQ23 us895.c 0.003738063994
RQ23 us896.c 0.006891193495
RQ23 us897.c 0.01037276345
RQ23 us898.c 0.008916922719
RQ23 us899.c 0.009164646464
RQ23 us900.c 0.004198561056
RQ23 us901.c 0.01165740007
RQ23 us903.c 0.008721211491
RQ24 us1005.c 0.005438827865
RQ24 us1060.c 0.002909587694
RQ24 us1159.c 0.008360130479
RQ24 us1864.c 0.003277804927
RQ24 us1883.c 0.007481484338
RQ24 us2174.c 0.004828069222
RQ24 us3496.c 0.004724599328
RQ24 us3512.c 0.005616349242
RQ24 us3612.c 0.01278138835
RQ24 us4020.c 0.003423912171
RQ24 us748.c 0.005003854169
RQ24 us893.c 0.003518828424
RQ24 us894.c 0.002687042251
RQ24 us895.c 0.002353844291
RQ24 us896.c 0.003094219754
RQ24 us897.c 0.004485005827
RQ24 us898.c 0.005866688667
RQ24 us899.c 0.004691829779
RQ24 us900.c 0.002219041089
RQ24 us901.c 0.003033108404
RQ24 us903.c 0.005031269072
RQ25 us1005.c 0.02594911658
RQ25 us1060.c 0.003936034361
RQ25 us1159.c 0.01497018565
RQ25 us1864.c 0.006878740509
RQ25 us1883.c 0.01121826542
RQ25 us2174.c 0.007344519271
RQ25 us3496.c 0.004548450113
RQ25 us3512.c 0.005039697596
RQ25 us3612.c 0.01342360474
RQ25 us4020.c 0.005484157989
RQ25 us748.c 0.008954291201
RQ25 us893.c 0.00765467926
RQ25 us894.c 0.005736930372
RQ25 us895.c 0.007301647517
RQ25 us896.c 0.006414249081
RQ25 us897.c 0.005960854731
RQ25 us898.c 0.006647644036
RQ25 us899.c 0.009678455876
RQ25 us900.c 0.007398489972
RQ25 us901.c 0.005643412758
RQ25 us903.c 0.01005407857
RQ26 us1005.c 0.007195655162
RQ26 us1060.c 0.005140060434
RQ26 us1159.c 0.002946750452
RQ26 us1864.c 0.006268250247
RQ26 us1883.c 0.007108296428
RQ26 us2174.c 0.004686356596
RQ26 us3496.c 0.003725524279
RQ26 us3512.c 0.003003234078
RQ26 us3612.c 0.0048315998
RQ26 us4020.c 0.00321233345
RQ26 us748.c 0.004218031507
RQ26 us893.c 0.002134084011
RQ26 us894.c 0.009930401915
RQ26 us895.c 7.615863647E-4
RQ26 us896.c 0.002267112645
RQ26 us897.c 0.003885865843
RQ26 us898.c 0.003296711789
RQ26 us899.c 0.00374828614
RQ26 us900.c 9.617757743E-4
RQ26 us901.c 0.01300376905
RQ26 us903.c 0.004895595469
RQ29 us1005.c 0.01517973396
RQ29 us1060.c 0.01195658781
RQ29 us1159.c 0.02377782849
RQ29 us1864.c 0.01826609084
RQ29 us1883.c 0.03028690156
RQ29 us2174.c 0.02215316039
RQ29 us3496.c 0.01722581621
RQ29 us3512.c 0.01752754398
RQ29 us3612.c 0.0173992398
RQ29 us4020.c 0.01907036012
RQ29 us748.c 0.013504866
RQ29 us893.c 0.01731331441
RQ29 us894.c 0.01378461335
RQ29 us895.c 0.01125215373
RQ29 us896.c 0.01196880533
RQ29 us897.c 0.01994302749
RQ29 us898.c 0.0205424084
RQ29 us899.c 0.02304116155
RQ29 us900.c 0.01238653865
RQ29 us901.c 0.01459514219
RQ29 us903.c 0.01546515434
RQ31 us1005.c 0.004265887089
RQ31 us1060.c 0.001378757823
RQ31 us1159.c 0.002639377213
RQ31 us1864.c 0.002659839104
RQ31 us1883.c 0.008523935993
RQ31 us2174.c 0.003072437705
RQ31 us3496.c 9.680979088E-4
RQ31 us3512.c 0.003540416561
RQ31 us3612.c 0.004666952668
RQ31 us4020.c 6.580837105E-4
RQ31 us748.c 0.001807760938
RQ31 us893.c 0.001346929928
RQ31 us894.c 7.313829931E-4
RQ31 us895.c 3.197460414E-4
RQ31 us896.c 0.001851312115
RQ31 us897.c 0.004289049851
RQ31 us898.c 0.00196723208
RQ31 us899.c 0.003092797334
RQ31 us900.c 5.614867119E-4
RQ31 us901.c 6.01067738E-4
RQ31 us903.c 0.002054578255
RQ32 us1005.c 0.01325300714
RQ32 us1060.c 0.009225593415
RQ32 us1159.c 0.0134332776
RQ32 us1864.c 0.0117035758
RQ32 us1883.c 0.0115795372
RQ32 us2174.c 0.01009178787
RQ32 us3496.c 0.01612948231
RQ32 us3512.c 0.01340500816
RQ32 us3612.c 0.01643323422
RQ32 us4020.c 0.008399492449
RQ32 us748.c 0.008376788417
RQ32 us893.c 0.006362993793
RQ32 us894.c 0.0149187626
RQ32 us895.c 0.006558749031
RQ32 us896.c 0.009388983151
RQ32 us897.c 0.02218454882
RQ32 us898.c 0.009908371174
RQ32 us899.c 0.008850128338
RQ32 us900.c 0.006797185611
RQ32 us901.c 0.01744999392
RQ32 us903.c 0.008854035485
RQ33 us1005.c 0.01236305528
RQ33 us1060.c 0.006891003387
RQ33 us1159.c 0.01352038699
RQ33 us1864.c 0.01171390088
RQ33 us1883.c 0.01543609753
RQ33 us2174.c 0.009199009058
RQ33 us3496.c 0.03231861249
RQ33 us3512.c 0.03564307318
RQ33 us3612.c 0.01671474089
RQ33 us4020.c 0.01001578203
RQ33 us748.c 0.008113846535
RQ33 us893.c 0.01101221262
RQ33 us894.c 0.0115898187
RQ33 us895.c 0.005329872872
RQ33 us896.c 0.009901802744
RQ33 us897.c 0.03057001589
RQ33 us898.c 0.01908393821
RQ33 us899.c 0.01099590049
RQ33 us900.c 0.006153401613
RQ33 us901.c 0.01095604481
RQ33 us903.c 0.008964177175
RQ34 us1005.c 0.01992753239
RQ34 us1060.c 0.00989385324
RQ34 us1159.c 0.01648679261
RQ34 us1864.c 0.008152041118
RQ34 us1883.c 0.01863741547
RQ34 us2174.c 0.01420191368
RQ34 us3496.c 0.01680774788
RQ34 us3512.c 0.02410203395
RQ34 us3612.c 0.01655944877
RQ34 us4020.c 0.008174628293
RQ34 us748.c 0.01366038202
RQ34 us893.c 0.0135937791
RQ34 us894.c 0.01891139927
RQ34 us895.c 0.005835711418
RQ34 us896.c 0.007614638953
RQ34 us897.c 0.02262127053
RQ34 us898.c 0.02299664226
RQ34 us899.c 0.01616157286
RQ34 us900.c 0.006328724194
RQ34 us901.c 0.0205040702
RQ34 us903.c 0.01504893694
RQ35 us1005.c 0.01026132975
RQ35 us1060.c 0.005557501364
RQ35 us1159.c 0.004085577773
RQ35 us1864.c 0.006344952848
RQ35 us1883.c 0.01344555653
RQ35 us2174.c 0.006613869753
RQ35 us3496.c 0.02267015925
RQ35 us3512.c 0.03783193425
RQ35 us3612.c 0.007880489143
RQ35 us4020.c 0.005811618511
RQ35 us748.c 0.009413113791
RQ35 us893.c 0.003833404317
RQ35 us894.c 0.005514566859
RQ35 us895.c 0.001582459866
RQ35 us896.c 0.002318711468
RQ35 us897.c 0.006729087201
RQ35 us898.c 0.006698103214
RQ35 us899.c 0.006242458353
RQ35 us900.c 0.001690330529
RQ35 us901.c 0.006919967683
RQ35 us903.c 0.01100842293
RQ36 us1005.c 0.01355903482
RQ36 us1060.c 0.005049369674
RQ36 us1159.c 0.02510347867
RQ36 us1864.c 0.01065446174
RQ36 us1883.c 0.0164258912
RQ36 us2174.c 0.01208504075
RQ36 us3496.c 0.01634370428
RQ36 us3512.c 0.01306872747
RQ36 us3612.c 0.02629944503
RQ36 us4020.c 0.0117270098
RQ36 us748.c 0.01122110572
RQ36 us893.c 0.009298816217
RQ36 us894.c 0.008657614284
RQ36 us895.c 0.01600122993
RQ36 us896.c 0.01310860526
RQ36 us897.c 0.0146485825
RQ36 us898.c 0.01814030946
RQ36 us899.c 0.02672646637
RQ36 us900.c 0.01561455905
RQ36 us901.c 0.009001125318
RQ36 us903.c 0.01116910331
RQ37 us1005.c 0.008621058089
RQ37 us1060.c 0.002843365508
RQ37 us1159.c 0.01030991454
RQ37 us1864.c 0.004038793514
RQ37 us1883.c 0.007758282043
RQ37 us2174.c 0.004235702848
RQ37 us3496.c 0.009348355937
RQ37 us3512.c 0.01562169905
RQ37 us3612.c 0.009578897246
RQ37 us4020.c 0.002048862944
RQ37 us748.c 0.004773245739
RQ37 us893.c 0.005921406424
RQ37 us894.c 0.004915669298
RQ37 us895.c 0.004037872429
RQ37 us896.c 0.003047992393
RQ37 us897.c 0.004741925446
RQ37 us898.c 0.008293213269
RQ37 us899.c 0.02320749355
RQ37 us900.c 0.00376222272
RQ37 us901.c 0.003643155298
RQ37 us903.c 0.004262609644
RQ38 us1005.c 0.1
RQ38 us1060.c 0.1
RQ38 us1159.c 0.1
RQ38 us1864.c 0.1
RQ38 us1883.c 0.1
RQ38 us2174.c 0.1
RQ38 us3496.c 0.01013725979
RQ38 us3512.c 0.01290213828
RQ38 us3612.c 0.02118970435
RQ38 us4020.c 0.007221922471
RQ38 us748.c 0.1
RQ38 us893.c 0.1
RQ38 us894.c 0.008707200202
RQ38 us895.c 0.1
RQ38 us896.c 0.1
RQ38 us897.c 0.1
RQ38 us898.c 0.1
RQ38 us899.c 0.1
RQ38 us900.c 0.1
RQ38 us901.c 0.008709775876
RQ38 us903.c 0.1
RQ4 us1005.c 0.0287605606
RQ4 us1060.c 0.02238110045
RQ4 us1159.c 0.03466788103
RQ4 us1864.c 0.03247472642
RQ4 us1883.c 0.04745887258
RQ4 us2174.c 0.03793023197
RQ4 us3496.c 0.04056854259
RQ4 us3512.c 0.03695447273
RQ4 us3612.c 0.0328949953
RQ4 us4020.c 0.03696993092
RQ4 us748.c 0.02536275574
RQ4 us893.c 0.02653645418
RQ4 us894.c 0.02841350471
RQ4 us895.c 0.03617544647
RQ4 us896.c 0.03789534404
RQ4 us897.c 0.0431256663
RQ4 us898.c 0.03688597914
RQ4 us899.c 0.0337088319
RQ4 us900.c 0.0398148927
RQ4 us901.c 0.02843977565
RQ4 us903.c 0.02586640904
RQ40 us1005.c 0.002380819624
RQ40 us1060.c 0.003087243042
RQ40 us1159.c 0.006576154177
RQ40 us1864.c 0.003822764647
RQ40 us1883.c 0.005295507001
RQ40 us2174.c 0.003878522948
RQ40 us3496.c 0.005681756671
RQ40 us3512.c 0.004567766802
RQ40 us3612.c 0.002449756611
RQ40 us4020.c 0.00194694871
RQ40 us748.c 0.006158648206
RQ40 us893.c 0.004805593532
RQ40 us894.c 0.005767073623
RQ40 us895.c 5.287427065E-4
RQ40 us896.c 4.080419863E-4
RQ40 us897.c 0.002966489231
RQ40 us898.c 0.005144818966
RQ40 us899.c 0.004284569644
RQ40 us900.c 9.108111363E-4
RQ40 us901.c 0.006588462211
RQ40 us903.c 0.007937909213
RQ41 us1005.c 0.008507955122
RQ41 us1060.c 0.005426145771
RQ41 us1159.c 0.01216991013
RQ41 us1864.c 0.007949314585
RQ41 us1883.c 0.02044399696
RQ41 us2174.c 0.01375939201
RQ41 us3496.c 0.0115883981
RQ41 us3512.c 0.01014907891
RQ41 us3612.c 0.01748076215
RQ41 us4020.c 0.005236256257
RQ41 us748.c 0.01217775857
RQ41 us893.c 0.009197752139
RQ41 us894.c 0.007882730223
RQ41 us895.c 0.005433667989
RQ41 us896.c 0.007386651959
RQ41 us897.c 0.01142527736
RQ41 us898.c 0.01581032045
RQ41 us899.c 0.01106264892
RQ41 us900.c 0.005382051948
RQ41 us901.c 0.007295785598
RQ41 us903.c 0.01516565076
RQ42 us1005.c 0.01749157353
RQ42 us1060.c 0.007163022257
RQ42 us1159.c 0.026198461
RQ42 us1864.c 0.01364024831
RQ42 us1883.c 0.01767108476
RQ42 us2174.c 0.01314315621
RQ42 us3496.c 0.02949787269
RQ42 us3512.c 0.02720955001
RQ42 us3612.c 0.03338072634
RQ42 us4020.c 0.01617387486
RQ42 us748.c 0.01147904386
RQ42 us893.c 0.009865568789
RQ42 us894.c 0.01326128925
RQ42 us895.c 0.005397908288
RQ42 us896.c 0.008363242947
RQ42 us897.c 0.02058945239
RQ42 us898.c 0.02127750372
RQ42 us899.c 0.01921789137
RQ42 us900.c 0.006012479307
RQ42 us901.c 0.01441969233
RQ42 us903.c 0.01127232217
RQ47 us1005.c 0.030585412
RQ47 us1060.c 0.009744944532
RQ47 us1159.c 0.03071822867
RQ47 us1864.c 0.02326215799
RQ47 us1883.c 0.01979343417
RQ47 us2174.c 0.02016491652
RQ47 us3496.c 0.0176867694
RQ47 us3512.c 0.02030395896
RQ47 us3612.c 0.01998754669
RQ47 us4020.c 0.0198278495
RQ47 us748.c 0.02111571258
RQ47 us893.c 0.01678584471
RQ47 us894.c 0.01916608296
RQ47 us895.c 0.01935369773
RQ47 us896.c 0.02245119634
RQ47 us897.c 0.02533049496
RQ47 us898.c 0.0209484628
RQ47 us899.c 0.0263435609
RQ47 us900.c 0.01928044889
RQ47 us901.c 0.02060975453
RQ47 us903.c 0.02250961688
RQ48 us1005.c 0.1
RQ48 us1060.c 0.1
RQ48 us1159.c 0.1
RQ48 us1864.c 0.1
RQ48 us1883.c 0.1
RQ48 us2174.c 0.1
RQ48 us3496.c 0.02405820559
RQ48 us3512.c 0.05169797112
RQ48 us3612.c 0.004650966681
RQ48 us4020.c 5.025313048E-4
RQ48 us748.c 0.1
RQ48 us893.c 0.1
RQ48 us894.c 0.00188779707
RQ48 us895.c 0.1
RQ48 us896.c 0.1
RQ48 us897.c 0.1
RQ48 us898.c 0.1
RQ48 us899.c 0.1
RQ48 us900.c 0.1
RQ48 us901.c 0.00263793226
RQ48 us903.c 0.1
RQ49 us1005.c 0.1
RQ49 us1060.c 0.1
RQ49 us1159.c 0.1
RQ49 us1864.c 0.1
RQ49 us1883.c 0.1
RQ49 us2174.c 0.1
RQ49 us3496.c 0.01247687824
RQ49 us3512.c 0.01365463507
RQ49 us3612.c 0.02062958838
RQ49 us4020.c 0.0123953328
RQ49 us748.c 0.1
RQ49 us893.c 0.1
RQ49 us894.c 0.009371413961
RQ49 us895.c 0.1
RQ49 us896.c 0.1
RQ49 us897.c 0.1
RQ49 us898.c 0.1
RQ49 us899.c 0.1
RQ49 us900.c 0.1
RQ49 us901.c 0.008822822544
RQ49 us903.c 0.1
RQ50 us1005.c 0.01142772703
RQ50 us1060.c 0.002154460775
RQ50 us1159.c 0.01285009758
RQ50 us1864.c 0.005980484121
RQ50 us1883.c 0.01401237226
RQ50 us2174.c 0.005953878859
RQ50 us3496.c 0.009343804403
RQ50 us3512.c 0.006541229307
RQ50 us3612.c 0.01437589991
RQ50 us4020.c 0.006093552623
RQ50 us748.c 0.004966671614
RQ50 us893.c 0.004899039384
RQ50 us894.c 0.004714904761
RQ50 us895.c 0.008178450516
RQ50 us896.c 0.007256071339
RQ50 us897.c 0.006472961967
RQ50 us898.c 0.009465730852
RQ50 us899.c 0.009851778639
RQ50 us900.c 0.009000250172
RQ50 us901.c 0.003609323835
RQ50 us903.c 0.005082166328
RQ51 us1005.c 0.03334714911
RQ51 us1060.c 0.009176825317
RQ51 us1159.c 0.02355814393
RQ51 us1864.c 0.01366712176
RQ51 us1883.c 0.02396646218
RQ51 us2174.c 0.01794635242
RQ51 us3496.c 0.01867319082
RQ51 us3512.c 0.01528910273
RQ51 us3612.c 0.03261518439
RQ51 us4020.c 0.01436616889
RQ51 us748.c 0.01354488058
RQ51 us893.c 0.01393710679
RQ51 us894.c 0.0149911393
RQ51 us895.c 0.009859052817
RQ51 us896.c 0.01233484532
RQ51 us897.c 0.02167855617
RQ51 us898.c 0.01803631051
RQ51 us899.c 0.01580979981
RQ51 us900.c 0.01148013772
RQ51 us901.c 0.01605968419
RQ51 us903.c 0.01399892234
RQ55 us1005.c 0.1
RQ55 us1060.c 0.104345052
RQ55 us1159.c 0.107899228
RQ55 us1864.c 0.1452617154
RQ55 us1883.c 0.1243256323
RQ55 us2174.c 0.144788356
RQ55 us3496.c 0.1127085809
RQ55 us3512.c 0.1188934373
RQ55 us3612.c 0.1017566404
RQ55 us4020.c 0.1074788621
RQ55 us748.c 0.1375877216
RQ55 us893.c 0.1007673683
RQ55 us894.c 0.1079002472
RQ55 us895.c 0.1413749347
RQ55 us896.c 0.1463770152
RQ55 us897.c 0.1044951151
RQ55 us898.c 0.1
RQ55 us899.c 0.1015036539
RQ55 us900.c 0.137259657
RQ55 us901.c 0.111780729
RQ55 us903.c 0.1406403608
RQ56 us1005.c 0.03389768775
RQ56 us1060.c 0.02000673707
RQ56 us1159.c 0.02988238671
RQ56 us1864.c 0.03135221441
RQ56 us1883.c 0.02793296429
RQ56 us2174.c 0.03401775869
RQ56 us3496.c 0.01936089133
RQ56 us3512.c 0.02823311321
RQ56 us3612.c 0.01863746106
RQ56 us4020.c 0.0193936497
RQ56 us748.c 0.03228409021
RQ56 us893.c 0.02400500053
RQ56 us894.c 0.02309718493
RQ56 us895.c 0.05358838328
RQ56 us896.c 0.0462323616
RQ56 us897.c 0.0224161564
RQ56 us898.c 0.02085777139
RQ56 us899.c 0.02642941716
RQ56 us900.c 0.05239131146
RQ56 us901.c 0.02498000294
RQ56 us903.c 0.03497146491
RQ57 us1005.c 0.05977170075
RQ57 us1060.c 0.05899022503
RQ57 us1159.c 0.07422672811
RQ57 us1864.c 0.0923881203
RQ57 us1883.c 0.08368466675
RQ57 us2174.c 0.0917565918
RQ57 us3496.c 0.07387487635
RQ57 us3512.c 0.07856398963
RQ57 us3612.c 0.0655480695
RQ57 us4020.c 0.06813275693
RQ57 us748.c 0.08431507607
RQ57 us893.c 0.06367701627
RQ57 us894.c 0.07097679602
RQ57 us895.c 0.08286030815
RQ57 us896.c 0.08650792445
RQ57 us897.c 0.07171851822
RQ57 us898.c 0.0692759882
RQ57 us899.c 0.07161290407
RQ57 us900.c 0.08290980953
RQ57 us901.c 0.07488471012
RQ57 us903.c 0.08703833888
RQ6 us1005.c 0.02429071161
RQ6 us1060.c 0.01974101321
RQ6 us1159.c 0.03595114257
RQ6 us1864.c 0.02681501915
RQ6 us1883.c 0.03284986352
RQ6 us2174.c 0.02719651444
RQ6 us3496.c 0.02978646129
RQ6 us3512.c 0.03038237112
RQ6 us3612.c 0.03056440972
RQ6 us4020.c 0.03256162035
RQ6 us748.c 0.02289722234
RQ6 us893.c 0.02274046042
RQ6 us894.c 0.02581194268
RQ6 us895.c 0.02107940698
RQ6 us896.c 0.02372165655
RQ6 us897.c 0.03763833997
RQ6 us898.c 0.03422948333
RQ6 us899.c 0.03691224641
RQ6 us900.c 0.02421124981
RQ6 us901.c 0.0268387442
RQ6 us903.c 0.0242706296
RQ8 us1005.c 0.01685845118
RQ8 us1060.c 0.003580738349
RQ8 us1159.c 0.006951070379
RQ8 us1864.c 0.003358673493
RQ8 us1883.c 0.01382871459
RQ8 us2174.c 0.007468547826
RQ8 us3496.c 0.002227719126
RQ8 us3512.c 0.001754334138
RQ8 us3612.c 0.01820986689
RQ8 us4020.c 0.002870847727
RQ8 us748.c 0.003650471514
RQ8 us893.c 0.002169116973
RQ8 us894.c 0.007266859349
RQ8 us895.c 3.082562859E-4
RQ8 us896.c 8.840267201E-4
RQ8 us897.c 0.001220940479
RQ8 us898.c 0.008656145113
RQ8 us899.c 0.004586118292
RQ8 us900.c 3.2582778E-4
RQ8 us901.c 0.01063564841
RQ8 us903.c 0.004272327471
